team specificity_interval_12_18_NIV specificity_interval_12_18_PEG specificity_interval_12_18_DEATH specificity_interval_12_18_NONE specificity_interval_12_18_CENSORED recall_interval_12_18_NIV recall_interval_12_18_PEG recall_interval_12_18_DEATH recall_interval_12_18_NONE recall_interval_12_18_CENSORED specificity_interval_18_24_NIV specificity_interval_18_24_PEG specificity_interval_18_24_DEATH specificity_interval_18_24_NONE specificity_interval_18_24_CENSORED recall_interval_18_24_NIV recall_interval_18_24_PEG recall_interval_18_24_DEATH recall_interval_18_24_NONE recall_interval_18_24_CENSORED specificity_interval_24_30_NIV specificity_interval_24_30_PEG specificity_interval_24_30_DEATH specificity_interval_24_30_NONE specificity_interval_24_30_CENSORED recall_interval_24_30_NIV recall_interval_24_30_PEG recall_interval_24_30_DEATH recall_interval_24_30_NONE recall_interval_24_30_CENSORED specificity_interval_30_36_NIV specificity_interval_30_36_PEG specificity_interval_30_36_DEATH specificity_interval_30_36_NONE specificity_interval_30_36_CENSORED recall_interval_30_36_NIV recall_interval_30_36_PEG recall_interval_30_36_DEATH recall_interval_30_36_NONE recall_interval_30_36_CENSORED specificity_label_NIV specificity_label_PEG specificity_label_DEATH specificity_label_NONE specificity_label_CENSORED recall_label_NIV recall_label_PEG recall_label_DEATH recall_label_NONE recall_label_CENSORED
sbb_T2c_M6_Cox 1 1 0.951367781155015 0.314285714285714 0.949874686716792 NA NA 0.185714285714286 0.917933130699088 NA 1 1 0.857142857142857 0.655737704918033 0.796875 NA NA 0.295081967213115 0.691119691119691 NA 1 1 0.88659793814433 0.721311475409836 0.611764705882353 NA NA 0.213114754098361 0.536082474226804 NA 1 1 0.878980891719745 0.727272727272727 0.494736842105263 NA NA 0.0606060606060606 0.407643312101911 NA 1 1 NA 0.634782608695652 1 NA NA 0.634782608695652 NA NA
sbb_T2c_M6_SSVM 1 1 0.963525835866261 0.357142857142857 0.93734335839599 NA NA 0.157142857142857 0.930091185410334 NA 1 1 0.861003861003861 0.60655737704918 0.840625 NA NA 0.262295081967213 0.745173745173745 NA 1 1 0.871134020618557 0.622950819672131 0.670588235294118 NA NA 0.163934426229508 0.582474226804124 NA 1 1 0.840764331210191 0.727272727272727 0.521052631578947 NA NA 0.0606060606060606 0.401273885350318 NA 1 1 NA 0.730434782608696 1 NA NA 0.730434782608696 NA NA
