team specificity_interval_12_18_NIV specificity_interval_12_18_PEG specificity_interval_12_18_DEATH specificity_interval_12_18_NONE specificity_interval_12_18_CENSORED recall_interval_12_18_NIV recall_interval_12_18_PEG recall_interval_12_18_DEATH recall_interval_12_18_NONE recall_interval_12_18_CENSORED specificity_interval_18_24_NIV specificity_interval_18_24_PEG specificity_interval_18_24_DEATH specificity_interval_18_24_NONE specificity_interval_18_24_CENSORED recall_interval_18_24_NIV recall_interval_18_24_PEG recall_interval_18_24_DEATH recall_interval_18_24_NONE recall_interval_18_24_CENSORED specificity_interval_24_30_NIV specificity_interval_24_30_PEG specificity_interval_24_30_DEATH specificity_interval_24_30_NONE specificity_interval_24_30_CENSORED recall_interval_24_30_NIV recall_interval_24_30_PEG recall_interval_24_30_DEATH recall_interval_24_30_NONE recall_interval_24_30_CENSORED specificity_interval_30_36_NIV specificity_interval_30_36_PEG specificity_interval_30_36_DEATH specificity_interval_30_36_NONE specificity_interval_30_36_CENSORED recall_interval_30_36_NIV recall_interval_30_36_PEG recall_interval_30_36_DEATH recall_interval_30_36_NONE recall_interval_30_36_CENSORED specificity_label_NIV specificity_label_PEG specificity_label_DEATH specificity_label_NONE specificity_label_CENSORED recall_label_NIV recall_label_PEG recall_label_DEATH recall_label_NONE recall_label_CENSORED
sbb_T2a_M0_RSF 0.891402714932127 1 0.954128440366973 0.509433962264151 0.857723577235772 0.28 NA 0.0714285714285714 0.735751295336788 NA 0.846153846153846 1 0.951515151515152 0.681818181818182 0.619047619047619 0.3 NA 0 0.43448275862069 NA 0.890625 1 0.953488372093023 0.935483870967742 0.416666666666667 0.25 NA 0 0.300884955752212 NA 0.959183673469388 1 0.980952380952381 0.80952380952381 0.232142857142857 0.0714285714285714 NA 0 0.164835164835165 NA 0.473684210526316 1 0.8125 0.671428571428571 1 0.4375 NA 0.184210526315789 NA NA
sbb_T2a_M0_SSVM 0.936651583710407 1 0.981651376146789 0.320754716981132 0.90650406504065 0.12 NA 0.0714285714285714 0.849740932642487 NA 0.881656804733728 1 0.909090909090909 0.659090909090909 0.698412698412698 0.2 NA 0.0833333333333333 0.524137931034483 NA 0.828125 1 0.930232558139535 0.935483870967742 0.375 0.125 NA 0 0.168141592920354 NA 0.959183673469388 1 0.980952380952381 1 0.116071428571429 0.0714285714285714 NA 0.142857142857143 0.0549450549450549 NA 0.552631578947368 1 0.6875 0.585714285714286 1 0.25 NA 0.157894736842105 NA NA
