0xf0b475d1676561e20804f1194407e9b5 0.96855616860837 0 DEATH sbb_T1c_M0_SSVM
0xd3ee37821226aa86382711f993370ef8 0.964637505548761 1 DEATH sbb_T1c_M0_SSVM
0xd091879593136949b2a475202c5e04fa 0.962016918026755 2 DEATH sbb_T1c_M0_SSVM
0xf06146e45ec0cc14307c87efa6207d46 0.961206195071286 3 NONE sbb_T1c_M0_SSVM
0xe2d33655c094ef8a373c0039122d9a7e 0.959779129392315 4 DEATH sbb_T1c_M0_SSVM
0xd7d862d8832214c47e56f7bf814a80ab 0.959279095584811 5 NONE sbb_T1c_M0_SSVM
0xe548fbdf7a480b6c172700c24266db93 0.957867380488391 6 NONE sbb_T1c_M0_SSVM
0xcb6ac5dbfc05f8f0974601ca5fd5030f 0.954744894926925 7 DEATH sbb_T1c_M0_SSVM
0xf7364a4981e0237889814677a80f28c7 0.952859495442142 8 DEATH sbb_T1c_M0_SSVM
0xea6e9e8593e17577e3160c2a1946d1f6 0.951667867049234 9 NONE sbb_T1c_M0_SSVM
0xdfd6ff34ba7f6abb38fa7ae9894d4d06 0.951459569712825 10 DEATH sbb_T1c_M0_SSVM
0xf9cf1b69a3cac1563c0cb355d7df83c7 0.9488059803252 11 NONE sbb_T1c_M0_SSVM
0xfbdb5a662aec0ca496557ec37f20d219 0.948786598185527 12 DEATH sbb_T1c_M0_SSVM
0xdd9bf04b864ca70e3747743c75fd5d15 0.947980579745431 13 DEATH sbb_T1c_M0_SSVM
0xfb403b2eeb639d2539f1cb7e3a3bfa49 0.947633090407591 14 NONE sbb_T1c_M0_SSVM
0xd7717aa6288c4cf6ffab22bf25544fd7 0.947611539545538 15 NONE sbb_T1c_M0_SSVM
0xe1861d1a19780afbf6e583e164e31737 0.946754166415161 16 DEATH sbb_T1c_M0_SSVM
0xcf467518a0b8918ab7df44c6f51d1235 0.94663430462829 17 DEATH sbb_T1c_M0_SSVM
0xee954eee6763a75b49356fd60400df96 0.946507037911138 18 NONE sbb_T1c_M0_SSVM
0xeec173e09e95045435808ae11ef6a5f5 0.944195923408376 19 DEATH sbb_T1c_M0_SSVM
0xf302dc063ff300d32a6ee2efab28b92d 0.943757160636505 20 DEATH sbb_T1c_M0_SSVM
0xdc44a5f974cd0e0be3a4afa4e5934e17 0.94325989110195 21 DEATH sbb_T1c_M0_SSVM
0xe3fe42b609b1deda32fdd589e8bc3f4d 0.94279838896682 22 NONE sbb_T1c_M0_SSVM
0xeceb727a34f8dde7f27bbdcc70559e3c 0.942454525910429 23 NONE sbb_T1c_M0_SSVM
0xd83e16c58a38a6710258d51ef5e55c2b 0.942323491443857 24 DEATH sbb_T1c_M0_SSVM
0xeab860b4b293424189f429e7d089d61a 0.942086007222341 25 DEATH sbb_T1c_M0_SSVM
0xcc2bf10495d5468c0d7ecc410eed5218 0.941248106160465 26 NONE sbb_T1c_M0_SSVM
0xe1243501dccecd29c201b7a93e1c3785 0.940687300517272 27 NONE sbb_T1c_M0_SSVM
0xd31b65ca63d9b4aa65f7c18ab924189a 0.94039909466753 28 NONE sbb_T1c_M0_SSVM
0xcf9644601c67a22a9c27ccfa1abdedf1 0.940329292842523 29 DEATH sbb_T1c_M0_SSVM
0xf5eeae64002862bbbe0cb0d1667ffa56 0.940234801035892 30 DEATH sbb_T1c_M0_SSVM
0xd1096bee9a6c72e45237d987dc77672f 0.939985003038107 31 DEATH sbb_T1c_M0_SSVM
0xeae8c46d82b48cc87efccde5a796cc0 0.939926408888747 32 DEATH sbb_T1c_M0_SSVM
0xf69395f0e9f8d7696c20d803a23345bd 0.939825904034028 33 DEATH sbb_T1c_M0_SSVM
0xf688e66f6457a8d658ff91c39e74fded 0.939603953425519 34 NONE sbb_T1c_M0_SSVM
0xedbd9bc377e62cb50bf2d3357144ea5c 0.93929236179587 35 NONE sbb_T1c_M0_SSVM
0xd26d82e70be8a467872b4b23cd851c3a 0.938995586642896 36 DEATH sbb_T1c_M0_SSVM
0xf103163cba9f07e058ce756b944886c1 0.93761963924639 37 DEATH sbb_T1c_M0_SSVM
0xe611e0187ce0a2383d06e8b7c4bdd82d 0.937607205186744 38 DEATH sbb_T1c_M0_SSVM
0xd5ec6e9cb0c8457b75773d5c896c97e2 0.937390819815058 39 DEATH sbb_T1c_M0_SSVM
0xf82230e4bcd875a07dc1bf0771cee5a2 0.937253613803672 40 NONE sbb_T1c_M0_SSVM
0xe9fba3e3fd2846481470a98032acd466 0.93715960401293 41 DEATH sbb_T1c_M0_SSVM
0xd1c7d3ccbb99ca71b975d1e0ec5b8f1a 0.936895952215023 42 DEATH sbb_T1c_M0_SSVM
0xd417279bb6053beedd7777f2c6f35582 0.936751582588853 43 NONE sbb_T1c_M0_SSVM
0xe13591723f3dd735ab755d1c7b9b7299 0.936157902222968 44 DEATH sbb_T1c_M0_SSVM
0xf6bc8bd3fbd838638e0f8515ec26c07a 0.936010370939058 45 DEATH sbb_T1c_M0_SSVM
0xf4fa7bd79c7b95cb9e90f1e80687dc56 0.935985907617594 46 DEATH sbb_T1c_M0_SSVM
0xfb6b88603cbfdcdccde6955a98e1f80f 0.935938669195497 47 DEATH sbb_T1c_M0_SSVM
0xfa239063a630e9e5929acf1f91f9a3da 0.935456551705024 48 NONE sbb_T1c_M0_SSVM
0xf71142822940f1367d768de7f2c82c00 0.93510132053401 49 NONE sbb_T1c_M0_SSVM
0xf4fe5de72a7b60434995feb9f494f3a8 0.934982541393028 50 DEATH sbb_T1c_M0_SSVM
0xe0020cb9777c4cfa55a538a0b30bb4fb 0.934427958638459 51 DEATH sbb_T1c_M0_SSVM
0xe63ca32211ba0ee710209b055926cc9f 0.934351943691239 52 NONE sbb_T1c_M0_SSVM
0xe68286b6e6394818e23e42eeebb6b5e2 0.934067695655827 53 DEATH sbb_T1c_M0_SSVM
0xd317b8d1717b6cde303ef3732e3cfb71 0.933922464110311 54 DEATH sbb_T1c_M0_SSVM
0xfe669ba1f416c40fe313e7c67b2acf26 0.933735602010155 55 NONE sbb_T1c_M0_SSVM
0xfd2e06a25a21d1558c6bd8fdfa1d5b6f 0.933717498271968 56 NONE sbb_T1c_M0_SSVM
0xce18e04b85953352c9b6c3552b883014 0.933339492594459 57 NONE sbb_T1c_M0_SSVM
0xd0b78902dae8914c1fd91189043a86fa 0.933253964942581 58 NONE sbb_T1c_M0_SSVM
0xe03eb5db3bd06ad4f2e316136029276e 0.932860168489621 59 NONE sbb_T1c_M0_SSVM
0xffb2d295bf7d88afcf7738b39ff9503d 0.932549761806983 60 DEATH sbb_T1c_M0_SSVM
0xe95317d9ab2f9930a73d4bbc86c4c13a 0.932446524814868 61 NONE sbb_T1c_M0_SSVM
0xcdec55e04e79ad795159801260b62787 0.932316737715404 62 DEATH sbb_T1c_M0_SSVM
0xf529bd25b4480431bfbba5d6f2e28a74 0.931661950103841 63 DEATH sbb_T1c_M0_SSVM
0xfa14498bd96bd8a6aa15cf75f9a3fb85 0.931596472295934 64 DEATH sbb_T1c_M0_SSVM
0xeb41451dd6d05415b2e95bec7d70425c 0.931448315919246 65 DEATH sbb_T1c_M0_SSVM
0xfd82b366738c82f8a704f1cac062c88b 0.931161449579572 66 DEATH sbb_T1c_M0_SSVM
0xfc75a58392a25eac28f8eabd1693466b 0.930950282225939 67 DEATH sbb_T1c_M0_SSVM
0xd0e71a1c656557fd7856d9e3c6b15faf 0.930946672486044 68 DEATH sbb_T1c_M0_SSVM
0xf1c610f643e2254e1e6bcd9f9fbb788f 0.93092765197414 69 DEATH sbb_T1c_M0_SSVM
0xd5043ae62b88bbb0e6f5fde21a8a65a2 0.930487974083376 70 NONE sbb_T1c_M0_SSVM
0xe52cf316e1e3097536676407e4e031a0 0.930050800205636 71 DEATH sbb_T1c_M0_SSVM
0xfadd704d172ee3faaca14a6aecebe5db 0.929821984584797 72 NONE sbb_T1c_M0_SSVM
0xe09643fdfa382af3b615067ba53e3ec9 0.929027441687398 73 DEATH sbb_T1c_M0_SSVM
0xcd148f06e8ec28a20a2f118fdf4adaea 0.928974988561009 74 NONE sbb_T1c_M0_SSVM
0xea09e79af31bf049776f88fb4dd6cfe2 0.928785207693704 75 NONE sbb_T1c_M0_SSVM
0xee8bfccacb125b541b17fdc2464757cc 0.928757843876735 76 DEATH sbb_T1c_M0_SSVM
0xf4f2553c05bed4c3641960d1326ae10b 0.928332711973832 77 DEATH sbb_T1c_M0_SSVM
0xd2a42221873cdea520585a5d5c88969f 0.927565437030019 78 DEATH sbb_T1c_M0_SSVM
0xea0eff4909b5dd55afbef60ffb4e3101 0.927151623051385 79 NONE sbb_T1c_M0_SSVM
0xd4ea23e326cd8074d2a8e19560589a3f 0.927123340935506 80 DEATH sbb_T1c_M0_SSVM
0xcf9844d5d100e482d188e39e0031c174 0.927008834550595 81 NONE sbb_T1c_M0_SSVM
0xd47e5fd14b1f26a916ed2808c6cb0dc2 0.926946473648834 82 NONE sbb_T1c_M0_SSVM
0xf8989307a3cc4e26889fd3e10f022ed5 0.926065817640506 83 DEATH sbb_T1c_M0_SSVM
0xda3cd952705fe75d00d50ca811b8db7 0.925962203267425 84 DEATH sbb_T1c_M0_SSVM
0xf27bededb6f7fb7d23de734413cc8da2 0.925743320693759 85 DEATH sbb_T1c_M0_SSVM
0xe7a85df03166d972a57667b88a86f8c 0.925536026564599 86 DEATH sbb_T1c_M0_SSVM
0xec1b1fb1dcc7b585296d94f07743df75 0.925503731517791 87 NONE sbb_T1c_M0_SSVM
0xf25577a5c837f2571b84329ad66e0141 0.925146262756532 88 DEATH sbb_T1c_M0_SSVM
0xea31d04befc74fc9e2fcd95610257670 0.924611526580158 89 DEATH sbb_T1c_M0_SSVM
0xec4bcb0a1930afa5232d2f6dc86b9177 0.924528545510904 90 NONE sbb_T1c_M0_SSVM
0xce338efc32da3c66c47085a9e8c4f21 0.924388573630998 91 NONE sbb_T1c_M0_SSVM
0xcae2a45cf7fbe6869c270a4a98ffdd7f 0.924204681729567 92 DEATH sbb_T1c_M0_SSVM
0xfa54e05f1e04e2ed49738336f4c3a84f 0.923746210687846 93 NONE sbb_T1c_M0_SSVM
0xd60c2abd7d42886e8a351fe84fa94a4 0.92367110596689 94 NONE sbb_T1c_M0_SSVM
0xe922d2f4df2427f8372559c67f9558ff 0.923121287587678 95 DEATH sbb_T1c_M0_SSVM
0xfd0b34dab06d3ffbac27187fdf686edb 0.922740130039945 96 DEATH sbb_T1c_M0_SSVM
0xe87724de950aa61be595c8805ea7baeb 0.922628652691164 97 DEATH sbb_T1c_M0_SSVM
0xd5638c7f81b87b1b60eb380abb81ba6b 0.922440088235246 98 DEATH sbb_T1c_M0_SSVM
0xe3571e398dc254de7638a7937035be70 0.9216702594598 99 DEATH sbb_T1c_M0_SSVM
0xf216cafbe04caffbd7664cc23a2db83d 0.921442719107937 100 NONE sbb_T1c_M0_SSVM
0xd947420e9d8d72f2cc88d9aa94d716de 0.921398458779294 101 NONE sbb_T1c_M0_SSVM
0xd7321cbd985268c4141bcc4485f73e54 0.921071166951673 102 NONE sbb_T1c_M0_SSVM
0xf94bb7a20ca8cb7706f518420785d5e0 0.920880913698923 103 DEATH sbb_T1c_M0_SSVM
0xf7bf2541be8877afdf8a7b3b3438fc52 0.920861666863607 104 DEATH sbb_T1c_M0_SSVM
0xfbac1c67b95ce1057128c431a2cdee75 0.920107055410756 105 DEATH sbb_T1c_M0_SSVM
0xf00d4ed29db7deec9288516fdb87da9c 0.920061655190962 106 NONE sbb_T1c_M0_SSVM
0xee3a19f52a50ecd49188235eb57b1d72 0.919878115813377 107 NONE sbb_T1c_M0_SSVM
0xdc103e9d0b714bbf9039509839a33d58 0.919645759743234 108 DEATH sbb_T1c_M0_SSVM
0xec56393484e50dc13f3e687c3537517d 0.91960154785959 109 DEATH sbb_T1c_M0_SSVM
0xe05df002506b4e86e045cc51a915e10 0.919570476751028 110 DEATH sbb_T1c_M0_SSVM
0xd9322524393a875d28f0c966d84d8293 0.919519543766984 111 NONE sbb_T1c_M0_SSVM
0xf3f096ee783aa5fd0723a87fb8bc12be 0.91898965477316 112 NONE sbb_T1c_M0_SSVM
0xcbf54e3665fbe4736d191381358aa7d7 0.918619537817294 113 NONE sbb_T1c_M0_SSVM
0xef1713560b9daaa3e34cb59dd8037f2f 0.918549376585069 114 DEATH sbb_T1c_M0_SSVM
0xff276b491e7bb2978e2c140930ef3fce 0.918365247206574 115 NONE sbb_T1c_M0_SSVM
0xeb7bf54305340d3d8e4f280abeb7473 0.918100892343176 116 DEATH sbb_T1c_M0_SSVM
0xff0dc46026c4c7377acc0612dd14888d 0.917962850251862 117 NONE sbb_T1c_M0_SSVM
0xff2a4d24028b93bb9f199542657cafce 0.916995969812051 118 NONE sbb_T1c_M0_SSVM
0xced2ec7559814380ba33ff0bab89b93a 0.916632007858595 119 NONE sbb_T1c_M0_SSVM
0xf188774bc59c58292edda7342dde3a3a 0.916324370171141 120 DEATH sbb_T1c_M0_SSVM
0xf710c42ea82b240dd90161a9fef83287 0.916173067998573 121 NONE sbb_T1c_M0_SSVM
0xd56863a27c027e278d4ff20e932056e3 0.916160782421699 122 DEATH sbb_T1c_M0_SSVM
0xf09904ece3ec254d120d8e20d2a9b8d4 0.915874878567712 123 DEATH sbb_T1c_M0_SSVM
0xf8755572377a8aec60f0daf413ccbb4b 0.915617360038225 124 NONE sbb_T1c_M0_SSVM
0xdab7039de7c92f9467307883d56c0151 0.914612048580348 125 DEATH sbb_T1c_M0_SSVM
0xd790f990b440716f8ddbd961e5881a42 0.914523177341479 126 NONE sbb_T1c_M0_SSVM
0xfd7364d0c76517b4939aed94bf9558d 0.913960365358335 127 DEATH sbb_T1c_M0_SSVM
0xd6f42694625c79b8219804527461c42 0.913773386395328 128 DEATH sbb_T1c_M0_SSVM
0xec869599b2d2828d526ab101d0aca22 0.913580483237317 129 DEATH sbb_T1c_M0_SSVM
0xf3db66d99e46915816ef68277c518c7b 0.913529484174089 130 DEATH sbb_T1c_M0_SSVM
0xdb5a760520e0194350467f91b656a4a4 0.913457224603537 131 NONE sbb_T1c_M0_SSVM
0xfa9882c168e02e5b6a87757e6b6b9b22 0.913442169650614 132 NONE sbb_T1c_M0_SSVM
0xca4d387aa324dd98b0a004cf51cc470f 0.913263725182394 133 DEATH sbb_T1c_M0_SSVM
0xcea28218baea20cfc121f8055282113f 0.913254205454925 134 NONE sbb_T1c_M0_SSVM
0xcab332227cf293abb3b500a15d0ff270 0.913135220440337 135 DEATH sbb_T1c_M0_SSVM
0xf9831b68aa9f7240975f3297c7ff7161 0.913125611320733 136 DEATH sbb_T1c_M0_SSVM
0xeb5be1e7fd6b7b2b20b9fef2b9701c76 0.912742574517486 137 DEATH sbb_T1c_M0_SSVM
0xe1f9255fd859bedca208a17db00b5737 0.912625830040887 138 DEATH sbb_T1c_M0_SSVM
0xfe0a4f8776ac746a638672323b26970f 0.912130692113588 139 DEATH sbb_T1c_M0_SSVM
0xefdf46113860766941eca0395f5f5a78 0.911753312110058 140 NONE sbb_T1c_M0_SSVM
0xca761a6a52244f763576347260b34a59 0.911579872104793 141 DEATH sbb_T1c_M0_SSVM
0xf2d107e07b799de2b3691edc490fcdee 0.911290311814327 142 DEATH sbb_T1c_M0_SSVM
0xd707b3b19e95bb3390bbca43a3c84861 0.911154966324478 143 NONE sbb_T1c_M0_SSVM
0xf26833e0957ae6825fc358ac4201c535 0.911139737554166 144 DEATH sbb_T1c_M0_SSVM
0xccebb4fbed5700851b1983686589cd2d 0.911057416091656 145 DEATH sbb_T1c_M0_SSVM
0xe34b5e762bb7ce57ec0aa9eda499b7d7 0.910861294386554 146 NONE sbb_T1c_M0_SSVM
0xeea35f2d789b18b2869b6be01a6d016b 0.910587781214928 147 DEATH sbb_T1c_M0_SSVM
0xf213112adb4999d5a440d900a689fb5b 0.910281843027378 148 DEATH sbb_T1c_M0_SSVM
0xf280278b67e8710e087249dad21da735 0.909810358028567 149 DEATH sbb_T1c_M0_SSVM
0xd987b922e81f9eaeebb9a09c2bfa0e30 0.909805391367671 150 DEATH sbb_T1c_M0_SSVM
0xd32d8b8316d08d4c934e0db5b4cbbbab 0.909577442742618 151 DEATH sbb_T1c_M0_SSVM
0xe71b3e912d71806b02f8dc57534c7e5c 0.909555311587366 152 DEATH sbb_T1c_M0_SSVM
0xf34134b9e4d84f0747e1b671e7ffc77f 0.90931389998248 153 NONE sbb_T1c_M0_SSVM
0xfed064f01a1708aac1ea3caca9e7aebc 0.909306786075089 154 DEATH sbb_T1c_M0_SSVM
0xffea07026ee4819bc346649ddad2d740 0.908965161778087 155 DEATH sbb_T1c_M0_SSVM
0xf44f6c6ed032569f224aca85ed0cbfec 0.908459992543196 156 DEATH sbb_T1c_M0_SSVM
0xe7414527e960338f49cb82d3cd44bf58 0.908283259969887 157 DEATH sbb_T1c_M0_SSVM
0xd0f564004cb3a9534a60631b5599c236 0.907893982491036 158 DEATH sbb_T1c_M0_SSVM
0xeca63b2021a883ab075f46cf5d0c0c4c 0.907849040883622 159 NONE sbb_T1c_M0_SSVM
0xeb98c8fbd6d496d367e7e63250ff829 0.907815437414042 160 NONE sbb_T1c_M0_SSVM
0xf0d0a2f0ca020f23ae90fd5ff6dd2c8e 0.907216356740817 161 DEATH sbb_T1c_M0_SSVM
0xfb6b11f879e8c94bc40e422f9219b39a 0.907160061693346 162 NONE sbb_T1c_M0_SSVM
0xce9ae81fe0bd49bcaa96eb67d3715455 0.907146566594237 163 DEATH sbb_T1c_M0_SSVM
0xccc6a0bdee2c8e1c6f6ca2e0e9fee8ed 0.906927230359762 164 NONE sbb_T1c_M0_SSVM
0xe28164b3703a515d07431e9a0cd7e326 0.906863708373035 165 DEATH sbb_T1c_M0_SSVM
0xced4fcea0fec8a743c479bce1bce3ca6 0.906858231685693 166 DEATH sbb_T1c_M0_SSVM
0xff800da9a7a2fc4a01db45e4e8bb9b63 0.906467504381192 167 DEATH sbb_T1c_M0_SSVM
0xca4775cc1195fd2a25426c36a4a1f85c 0.906374805712297 168 NONE sbb_T1c_M0_SSVM
0xd39cb0c000c1454b265e9d35eff7b351 0.905901159540926 169 NONE sbb_T1c_M0_SSVM
0xdc56995bc7b7f90c80986aabdbc5ada1 0.905343596551991 170 DEATH sbb_T1c_M0_SSVM
0xf44e148c018f050d4bb41962d37da746 0.905312772523675 171 NONE sbb_T1c_M0_SSVM
0xed33bc879bc2074ac2e72632e9505f81 0.905286166128693 172 DEATH sbb_T1c_M0_SSVM
0xfb46f742b267f2c6067298fce3e870cb 0.904931595581731 173 DEATH sbb_T1c_M0_SSVM
0xf78ead80e7859b6ad13d1a038a7db8f8 0.904641741584772 174 DEATH sbb_T1c_M0_SSVM
0xd0c0c32aac515e84075e95bc5cf59b0f 0.904269873845753 175 NONE sbb_T1c_M0_SSVM
0xe1b521e5c1ba0a32f7c946d8e6e45785 0.903134564529596 176 NONE sbb_T1c_M0_SSVM
0xd3690d7f264d59ee3b2ebc6169757913 0.903058043832631 177 NONE sbb_T1c_M0_SSVM
0xcbe5c397bc559de15654725ce6f473fd 0.902845298884502 178 NONE sbb_T1c_M0_SSVM
0xd5c337472199810ecb872821d9788346 0.902746096028946 179 NONE sbb_T1c_M0_SSVM
0xccc8903f7f9f34d9df438d36b205cdc4 0.902619093488696 180 DEATH sbb_T1c_M0_SSVM
0xcd3583d156c165ef5eb313099f58965d 0.90218604254964 181 DEATH sbb_T1c_M0_SSVM
0xd53604e8a14246f6ac13809f369bc9fe 0.901572486414222 182 NONE sbb_T1c_M0_SSVM
0xfdeac27ee0e72aca88b427bb87909368 0.901540900222139 183 NONE sbb_T1c_M0_SSVM
0xe7e58da752f329f4c502a1e99da9163e 0.901347762962561 184 NONE sbb_T1c_M0_SSVM
0xda5c46fe14bcc02dd330b6f33d4d2b69 0.901210731534951 185 NONE sbb_T1c_M0_SSVM
0xd7bf8d698833b47c11ab207cc04b89c9 0.901083048720979 186 NONE sbb_T1c_M0_SSVM
0xd11d7c25b92a35bb6263f1862fc4ce50 0.900044853488929 187 NONE sbb_T1c_M0_SSVM
0xe5144e8e0dc88e7e42acc50fa0a3bd5e 0.899893389336132 188 NONE sbb_T1c_M0_SSVM
0xe1911c880481ae1c7ceea1c15ee76b7a 0.899555349776079 189 NONE sbb_T1c_M0_SSVM
0xe5a7736524fb5fcf98c1aef549cab227 0.899055777242882 190 NONE sbb_T1c_M0_SSVM
0xe4fdcdd2a4c1d58debdf622a8b7c786 0.899014406444163 191 NONE sbb_T1c_M0_SSVM
0xef2d65a03b94ad521ce01a01902cddbc 0.898449621253204 192 DEATH sbb_T1c_M0_SSVM
0xfeee1b962c83164cd24885a790f8f1cf 0.898388528262644 193 DEATH sbb_T1c_M0_SSVM
0xef030f43e22e752a9a0e914582eaa50e 0.897869264527963 194 NONE sbb_T1c_M0_SSVM
0xdc95cdc9b3e1d6708a767449fa13ae6e 0.897764221315383 195 DEATH sbb_T1c_M0_SSVM
0xd99207a82b9ebf093a36d905b4104fb5 0.897441659777292 196 NONE sbb_T1c_M0_SSVM
0xdf77d399fe527cf039cdaf28269c5aa5 0.897207463025514 197 NONE sbb_T1c_M0_SSVM
0xf53b3ecfaf3cf0310b8679cb9332c1d 0.897091136730218 198 NONE sbb_T1c_M0_SSVM
0xfe6e4b0c7e68f9f149150293ea9423a9 0.897019828513844 199 DEATH sbb_T1c_M0_SSVM
0xf1a0c725e956c72ee92590d8dcfefb58 0.896730863794946 200 DEATH sbb_T1c_M0_SSVM
0xdf43cfb79350350b0b0b4f4e9e8cc141 0.896554405225148 201 NONE sbb_T1c_M0_SSVM
0xfbc694fefaa0cd13396b8dc271863e35 0.896554045638646 202 NONE sbb_T1c_M0_SSVM
0xd41a3ee089ce64b7aab7b3f5ff2b08a6 0.896550453106378 203 DEATH sbb_T1c_M0_SSVM
0xe131e2e69ff731d99b83a026c9fe5580 0.896349443890176 204 DEATH sbb_T1c_M0_SSVM
0xe2bcb1edb8f34ed00792515d9e8f45a4 0.895896463105034 205 NONE sbb_T1c_M0_SSVM
0xe087e13516f034108a913abd7a34b28 0.894655402751169 206 DEATH sbb_T1c_M0_SSVM
0xfd6f2c6acb64a6e8b22b761c7058f8b1 0.894390883239875 207 DEATH sbb_T1c_M0_SSVM
0xdb5dc80f29a179038e60bbffd2c97e64 0.894210953184726 208 DEATH sbb_T1c_M0_SSVM
0xf4223f279969356614e148096f0ff626 0.893789438876582 209 NONE sbb_T1c_M0_SSVM
0xd74b09cba6eae315293ad458e6bcc9f2 0.892686657738456 210 DEATH sbb_T1c_M0_SSVM
0xcdf90b1c396233a6505dda507cbcd62 0.891930497982931 211 DEATH sbb_T1c_M0_SSVM
0xf766abd56d68ad3f98a669e428314623 0.891805723316854 212 DEATH sbb_T1c_M0_SSVM
0xd944807f0027bf43b7786e4bd9b8e9ef 0.891719269277438 213 DEATH sbb_T1c_M0_SSVM
0xe936c1effb682d71174c5873419f7029 0.891565136234761 214 NONE sbb_T1c_M0_SSVM
0xcacac569f2346df060fe5fa58e2d4440 0.891559040159886 215 DEATH sbb_T1c_M0_SSVM
0xd97fec54dc54fa1b60a32665993d16c4 0.891179213282398 216 DEATH sbb_T1c_M0_SSVM
0xdab201c23fc655b741604ffff04fb576 0.890870835900041 217 DEATH sbb_T1c_M0_SSVM
0xd244a1f9c20c3f18776c0091e4a2f1 0.889914881865164 218 DEATH sbb_T1c_M0_SSVM
0xd9ce87a4ce5b4b7068a7718a2b6d70a8 0.889386061971307 219 NONE sbb_T1c_M0_SSVM
0xfd2274eb15b71024039d32eb1edefe55 0.888142379903409 220 DEATH sbb_T1c_M0_SSVM
0xffa9b0a3542580ba135d03f977b3e739 0.888016109804431 221 DEATH sbb_T1c_M0_SSVM
0xfaf00e55746069b29728118912287df5 0.887356990189791 222 NONE sbb_T1c_M0_SSVM
0xca70bebf5900a008bd4c269f73786bb9 0.886039272230226 223 DEATH sbb_T1c_M0_SSVM
0xe24abba1dbd4bf308cc5c3edd30f3aaf 0.885557762187317 224 DEATH sbb_T1c_M0_SSVM
0xcbace36a71da30e112149f1e03c3ec14 0.885197195573462 225 DEATH sbb_T1c_M0_SSVM
0xd7b06c10449c68e86de95bec01aab1ff 0.885167407072487 226 DEATH sbb_T1c_M0_SSVM
0xe2459ee8b4c7c07a0c3186049b3e1d43 0.885090565151303 227 NONE sbb_T1c_M0_SSVM
0xf99cf8d8fb1425bd6599947341f2c0a3 0.884962027467865 228 DEATH sbb_T1c_M0_SSVM
0xf85acc7de3bbd88ce48d27e53a99e9e0 0.884555095885646 229 DEATH sbb_T1c_M0_SSVM
0xf9a50982020767a3819aef62ef7cf85a 0.884255013124224 230 NONE sbb_T1c_M0_SSVM
0xe7bbea70b46ca3563c52cf93d7f77e6e 0.88416522433538 231 DEATH sbb_T1c_M0_SSVM
0xe98b50fd5e1b71343db2db67b7e4b499 0.883758870124488 232 NONE sbb_T1c_M0_SSVM
0xfdc48e7bc026e1057eac3f2461cdccdc 0.883698726560576 233 NONE sbb_T1c_M0_SSVM
0xca23e24556475bbc742f37df9b4dacfc 0.883306599609748 234 NONE sbb_T1c_M0_SSVM
0xd333c66f71dcbce577612ecbfdaac2a8 0.882888202798349 235 DEATH sbb_T1c_M0_SSVM
0xe279e335141f1938c4902e0542794860 0.882550912881963 236 NONE sbb_T1c_M0_SSVM
0xe03c0e77caeee1175d806396ea7f394f 0.882502334758623 237 DEATH sbb_T1c_M0_SSVM
0xd27138ac1133341363af73b557e744f5 0.88223842458627 238 DEATH sbb_T1c_M0_SSVM
0xe18c99ff5b5c6cab7d196a80b58cac43 0.881528594653171 239 NONE sbb_T1c_M0_SSVM
0xd36c161f1116c89d7b96cd22a3c72459 0.881325436728442 240 DEATH sbb_T1c_M0_SSVM
0xcb30b2e0562dacba4b296226944f2c4b 0.881114505441748 241 NONE sbb_T1c_M0_SSVM
0xe97dee51285e88b33b4c0761066df1e 0.880282731162862 242 NONE sbb_T1c_M0_SSVM
0xd12aa4465a4d66275552160183f389d3 0.879990056152685 243 DEATH sbb_T1c_M0_SSVM
0xd6ceb97d4ad0065684a61fa954b61398 0.879972633859053 244 NONE sbb_T1c_M0_SSVM
0xfd1d5c688d32c592344c0b477526d572 0.879516228388822 245 NONE sbb_T1c_M0_SSVM
0xd675843b3b012885484e0637ea0333f8 0.879230323573132 246 DEATH sbb_T1c_M0_SSVM
0xd112ebf7115150f9fef4fef8d491b40a 0.878797182539254 247 DEATH sbb_T1c_M0_SSVM
0xd1f3a8b31288234dcb941265851400ba 0.878555814967476 248 DEATH sbb_T1c_M0_SSVM
0xcddf70765fbf01a610028e885ff0ed57 0.878303675017426 249 NONE sbb_T1c_M0_SSVM
0xd6863d328e70d290894ca386305b1b0a 0.878186113214595 250 NONE sbb_T1c_M0_SSVM
0xedaa4967a674ca7d995883be598a1a5c 0.877920678508069 251 NONE sbb_T1c_M0_SSVM
0xce7ac190b444a9100c60b9f00b6737d 0.877651230832485 252 NONE sbb_T1c_M0_SSVM
0xca2a048cc828f5ebd2000a554301d13f 0.877200387243451 253 DEATH sbb_T1c_M0_SSVM
0xec8f4f8e33c61d083b87631e1fc49471 0.877148424642114 254 NONE sbb_T1c_M0_SSVM
0xfcaf34ef7b81ea5ab2a3ab42a06f57b8 0.876513505342576 255 DEATH sbb_T1c_M0_SSVM
0xea7bc1be9d79fce7043d34eee9eb3fb 0.875995165388808 256 NONE sbb_T1c_M0_SSVM
0xeecc0a28a6ea86c50224dcb2530f4706 0.875820863511055 257 NONE sbb_T1c_M0_SSVM
0xfd393a5687cc418359d4af8ce52fb04 0.875746911000444 258 NONE sbb_T1c_M0_SSVM
0xefbd105005fbd4c913e67f1e04cea00b 0.875445605449447 259 DEATH sbb_T1c_M0_SSVM
0xf8240b7302429c49504a9230ce6a5428 0.875265078430354 260 DEATH sbb_T1c_M0_SSVM
0xeeaef2090e6697ea49cd4754c1e7fc52 0.875241063835146 261 DEATH sbb_T1c_M0_SSVM
0xeb8326312cceeb12d9960732cf4f5155 0.875189453314516 262 DEATH sbb_T1c_M0_SSVM
0xdebc17bef1084afcb99a1e691bc29ae 0.875016693945357 263 NONE sbb_T1c_M0_SSVM
0xf10d4ea92d3f8bd97a8e97335420ec9d 0.87476954599188 264 NONE sbb_T1c_M0_SSVM
0xf38fdc686f3ccffbeb4d8cf31d935f5d 0.874452948636986 265 NONE sbb_T1c_M0_SSVM
0xf7e5cdefcee841d2b6cc6c1e60f488a1 0.874396445902124 266 DEATH sbb_T1c_M0_SSVM
0xcf1c0a3f75991383513ef134ef40d961 0.874052966079859 267 NONE sbb_T1c_M0_SSVM
0xf5b897d01df647df2ae8611b87206c69 0.874049262752205 268 DEATH sbb_T1c_M0_SSVM
0xdb5f9c198ddfc05cebd57e05ce1f65b0 0.873752700322699 269 DEATH sbb_T1c_M0_SSVM
0xdddf585b28242c749d927d5be4bc1301 0.872531614456948 270 NONE sbb_T1c_M0_SSVM
0xcc2e997f6e56c86b5f5738abb6fd9176 0.872468315210948 271 DEATH sbb_T1c_M0_SSVM
0xf45f2136fc41ad2a85fd11aa40df27c5 0.871706243134528 272 DEATH sbb_T1c_M0_SSVM
0xd3eeae39e8592e4bc68736b593804ae0 0.87041534206163 273 NONE sbb_T1c_M0_SSVM
0xd918b145d162d1179dd34d36f51be722 0.87037835685094 274 NONE sbb_T1c_M0_SSVM
0xda6be9a63492d9182cb0e1ba803a99f3 0.870258110839711 275 NONE sbb_T1c_M0_SSVM
0xd5792dfdb345bdca74578a5dd7e9c0fc 0.869698432247833 276 NONE sbb_T1c_M0_SSVM
0xf9520b99fe784fd0a89627834db4ac60 0.869476271308506 277 NONE sbb_T1c_M0_SSVM
0xda807cd4f873161d3d7e48c2af27764c 0.86942244876543 278 DEATH sbb_T1c_M0_SSVM
0xda04f2d9de35c2c9ede44c4d0b936626 0.867397128241362 279 DEATH sbb_T1c_M0_SSVM
0xd718fbf5e5448b16ffb18ccaf30f844a 0.867086607542583 280 DEATH sbb_T1c_M0_SSVM
0xd82e2ab264accdedf1746f2fff6aa04e 0.866921373017926 281 DEATH sbb_T1c_M0_SSVM
0xf77ccf65b349a2464fc80d0b3f6ea85d 0.86692029828613 282 DEATH sbb_T1c_M0_SSVM
0xf950685edb82c4ec4f7a08666017a011 0.866171146990866 283 NONE sbb_T1c_M0_SSVM
0xf648b61ecd9ef2453a2e443d2ba184b3 0.865785162765097 284 DEATH sbb_T1c_M0_SSVM
0xd2117522df5b7e50c1495e661a655df1 0.864035825218923 285 NONE sbb_T1c_M0_SSVM
0xfd70e2ffdac9d7227f1870f3b2e11fa6 0.863946274354367 286 NONE sbb_T1c_M0_SSVM
0xfd6cee8f40454120ee09c9fed24bcee1 0.86379715751366 287 DEATH sbb_T1c_M0_SSVM
0xff7def9ae79d9c965bf2ab55a63ab030 0.863751387886527 288 NONE sbb_T1c_M0_SSVM
0xe5503eff502e4079eeb7b70a8e81624f 0.863577840311205 289 DEATH sbb_T1c_M0_SSVM
0xeaed8517edbbb934b65bb5ada72c4326 0.863502291083165 290 NONE sbb_T1c_M0_SSVM
0xdd5e2c8f8a84304f9f8357bff5b5d42e 0.863484237810753 291 DEATH sbb_T1c_M0_SSVM
0xf8dc68d9a1c5c169583ca3d4dfa5c214 0.862905309089549 292 DEATH sbb_T1c_M0_SSVM
0xcf55f54f88796ec3794c9ff00efb027b 0.862218144574359 293 DEATH sbb_T1c_M0_SSVM
0xf2e4385cd98a2ef4b84b251b38f66b36 0.861920772383688 294 DEATH sbb_T1c_M0_SSVM
0xcb1cddfe56f7600981762572ef3a5160 0.861193886087778 295 DEATH sbb_T1c_M0_SSVM
0xec63a43004d49655727a77cf1907da9b 0.861177431953684 296 NONE sbb_T1c_M0_SSVM
0xfb313a896f03bab8c319262f69eb0cc 0.861044079291841 297 NONE sbb_T1c_M0_SSVM
0xfd7f1867f3e74ffe8d920958df8e11e8 0.860538352476968 298 NONE sbb_T1c_M0_SSVM
0xfa1fc7c435f2de6bdb7ed4fc644e5aa6 0.860434496638335 299 NONE sbb_T1c_M0_SSVM
0xebe2c7d10de4b1f1a07007d80a59fece 0.859677481678014 300 NONE sbb_T1c_M0_SSVM
0xde3ebb711c6d4dd2fc6aaed819e56904 0.858850376462107 301 DEATH sbb_T1c_M0_SSVM
0xdf69e78176d39a97097368c5a5ab0aba 0.85839468298357 302 NONE sbb_T1c_M0_SSVM
0xea6ee484c00cfac85c2b41b32ec3945b 0.858035525047003 303 DEATH sbb_T1c_M0_SSVM
0xeac9347ec35cb5dc7bb8c79a03b92c33 0.856176174437748 304 DEATH sbb_T1c_M0_SSVM
0xfb9b007e9edd75c26a83395469cff112 0.855699960115004 305 NONE sbb_T1c_M0_SSVM
0xca54158bee84393d9cb9b564c247c280 0.855361247374164 306 NONE sbb_T1c_M0_SSVM
0xf56f03896712bce7df54fcc6c4d4e317 0.855261372669684 307 DEATH sbb_T1c_M0_SSVM
0xf48e752b802c35028d8fb7308b1e948b 0.855253316144249 308 DEATH sbb_T1c_M0_SSVM
0xfbc8eb23a6ec1008a7c9d1ffebdf5f58 0.8551612094765 309 DEATH sbb_T1c_M0_SSVM
0xcb92d5403ec72f39bd2452d25cb19656 0.854910765160076 310 DEATH sbb_T1c_M0_SSVM
0xdb1d15b66373bf1bcac246947ff2a5c 0.854595445033667 311 NONE sbb_T1c_M0_SSVM
0xd4d10cf490061439735b63ce33997c14 0.854507101694706 312 NONE sbb_T1c_M0_SSVM
0xe75da17b210d09562c2494dbe0146b54 0.854013331736845 313 DEATH sbb_T1c_M0_SSVM
0xca65054cf38c80ad985fedf1060d34da 0.853674310321833 314 NONE sbb_T1c_M0_SSVM
0xfb08439610a68a0e85a6eb06d412e34c 0.853589643693104 315 NONE sbb_T1c_M0_SSVM
0xf58a2c4705910147789b87305c44acef 0.853587503084275 316 NONE sbb_T1c_M0_SSVM
0xdd97a1c26fa0eb26748f253bbd060287 0.852478626081119 317 DEATH sbb_T1c_M0_SSVM
0xe9a50e135fe75c3fddfdc1abfc798b17 0.852457575651255 318 DEATH sbb_T1c_M0_SSVM
0xe2da7898817d9475a66b89d99b0a6e12 0.852154892957301 319 DEATH sbb_T1c_M0_SSVM
0xee3f8a31ebc825766c6f42a32f3d806a 0.851112465970185 320 NONE sbb_T1c_M0_SSVM
0xfd1b9d000bab595412ab90d849c98927 0.849789110020702 321 NONE sbb_T1c_M0_SSVM
0xf739a7606c240c989e91c7f80684264d 0.849737180327677 322 DEATH sbb_T1c_M0_SSVM
0xf9bbabe811e269d8cf2be964e07594bc 0.849372606654403 323 DEATH sbb_T1c_M0_SSVM
0xd73350f7d616cb803f96f4f17678fd8f 0.848877998204345 324 NONE sbb_T1c_M0_SSVM
0xf2a2ce275115e111ae5a22ad3429026c 0.847587757564298 325 DEATH sbb_T1c_M0_SSVM
0xf0f77e6f043c61c37cf0e7c3d0e3c754 0.847284052641662 326 DEATH sbb_T1c_M0_SSVM
0xde16308d1d1aa5d87038aa16043406e7 0.846922304381675 327 DEATH sbb_T1c_M0_SSVM
0xdab5b4c5bf823ca40ccf04b019db8012 0.846807527543592 328 DEATH sbb_T1c_M0_SSVM
0xce2e410507d55ec95d2103150428015f 0.846002449966964 329 DEATH sbb_T1c_M0_SSVM
0xe6c9f4971f7d0be5178bcee41ec7ce40 0.845986123236498 330 DEATH sbb_T1c_M0_SSVM
0xd5ffba53ba5ea58fbb117bc716014e12 0.845522464157976 331 DEATH sbb_T1c_M0_SSVM
0xde517225b56631a6ed23488cfb0d4a54 0.845162259154331 332 NONE sbb_T1c_M0_SSVM
0xde3661c7ed3dc0a21a37fc693b75b963 0.844968343925779 333 NONE sbb_T1c_M0_SSVM
0xf2487b792a8cb59a0f5c7db06196110c 0.844373725049124 334 DEATH sbb_T1c_M0_SSVM
0xfb8d03bebaba360a9a6086d80513029a 0.84424499198081 335 DEATH sbb_T1c_M0_SSVM
0xef8a3804eb6d65718f090a1fd1cb1cfb 0.843325673457239 336 DEATH sbb_T1c_M0_SSVM
0xd3b7c5fb0c510b91174df4e6ba01f066 0.843266980536929 337 NONE sbb_T1c_M0_SSVM
0xfffd8c023601dac0ce9b21ab226b8a3d 0.842549158932805 338 DEATH sbb_T1c_M0_SSVM
0xd4b363ca424fcb5495c55e256d228dcf 0.841746367528551 339 DEATH sbb_T1c_M0_SSVM
0xed99d8ce85b98ac336bfe40b81f2e926 0.841518464847389 340 NONE sbb_T1c_M0_SSVM
0xf9079405694f19b4849f68c05e06e474 0.841273281209589 341 DEATH sbb_T1c_M0_SSVM
0xfbfc24fa1e8e50a389841a14774debee 0.841070589317859 342 NONE sbb_T1c_M0_SSVM
0xebb8cde3b65772cb963be4146bf426e5 0.84099787197886 343 DEATH sbb_T1c_M0_SSVM
0xe011d3b8d1d2afa89a4f3ad809e82f61 0.840074150720544 344 NONE sbb_T1c_M0_SSVM
0xe6aaabecc286c2da050879aacc52273 0.839874672224457 345 DEATH sbb_T1c_M0_SSVM
0xcb15df0f7755ee99f8a82390ab14f3f6 0.837571085819399 346 DEATH sbb_T1c_M0_SSVM
0xd5b544c682f3ff066e5c84bbb8ad6b79 0.837389782923731 347 NONE sbb_T1c_M0_SSVM
0xd2b30a43f8fb2fdf2541ce2b52411751 0.837205750557134 348 DEATH sbb_T1c_M0_SSVM
0xf0cce8b217b6cece44d7c415dcc41fb0 0.836978098599002 349 DEATH sbb_T1c_M0_SSVM
0xf4b4830578cde5e21fefe4f6af242ac7 0.836696231914641 350 DEATH sbb_T1c_M0_SSVM
0xcdc2424b773830758b504e7e2d8f4e78 0.834976578196009 351 DEATH sbb_T1c_M0_SSVM
0xe60673d48d2ab455e24ddd8782f542 0.834869915792434 352 DEATH sbb_T1c_M0_SSVM
0xd756384a94be6177659d1c36c1096aa4 0.83486497386757 353 NONE sbb_T1c_M0_SSVM
0xd5edb5ec1169f1a5c865ae83f0af14e8 0.83477864303556 354 NONE sbb_T1c_M0_SSVM
0xdeb42eb3e20ddcab47803195d2e8dd9 0.834592089739986 355 DEATH sbb_T1c_M0_SSVM
0xdd0862a04c30e83bb0603190b7f66f4e 0.834451498094488 356 DEATH sbb_T1c_M0_SSVM
0xe186efe19dcf7c7050a226f1d5f304ae 0.833209198938231 357 DEATH sbb_T1c_M0_SSVM
0xe725515e589333a0e47d8fecb13d0e19 0.832180502360411 358 DEATH sbb_T1c_M0_SSVM
0xee9c235ba68778d06fb84e7e709fa6e7 0.829617476703763 359 NONE sbb_T1c_M0_SSVM
0xde0743f85184390d3bc39c19bf2ea2ae 0.829048097087005 360 DEATH sbb_T1c_M0_SSVM
0xd88837402c4e93085d4cc6f7a9c24cc1 0.829000335107475 361 NONE sbb_T1c_M0_SSVM
0xe50e1671eae00837186f48081823f6a 0.828056905847306 362 DEATH sbb_T1c_M0_SSVM
0xcc1e99442c5e67e860b2b7a69cbde924 0.827390399226378 363 DEATH sbb_T1c_M0_SSVM
0xf7800c3c145eb89a00eec9394dbf9aa0 0.826983465125441 364 NONE sbb_T1c_M0_SSVM
0xdf89ee61d738c89777ac8917091d7b5f 0.826496581387202 365 DEATH sbb_T1c_M0_SSVM
0xcca971bb438338084e8bafff27b6770e 0.824941668737294 366 DEATH sbb_T1c_M0_SSVM
0xe22e327df9138504c3ee7484a3f1dd9d 0.824092252163036 367 DEATH sbb_T1c_M0_SSVM
0xf82812ebdea85ea1aa475f6a802c819b 0.823312215323812 368 NONE sbb_T1c_M0_SSVM
0xfd825cb486e59a2700e5da7ce967f6a4 0.82136990854213 369 DEATH sbb_T1c_M0_SSVM
0xd812ab30e47bb673fca4238f569e43fc 0.820424438461812 370 DEATH sbb_T1c_M0_SSVM
0xfe575fd2cf4dc619ebd32287145eea83 0.819500004951702 371 DEATH sbb_T1c_M0_SSVM
0xf09ebd675a83f3afcaaf4e64977c3b1a 0.817297113844811 372 DEATH sbb_T1c_M0_SSVM
0xdaac19ce7fb25ca7da5241ef8e13a995 0.816926649139786 373 NONE sbb_T1c_M0_SSVM
0xd31520068ec294753fb4be6f9fb8ae35 0.81588785829165 374 NONE sbb_T1c_M0_SSVM
0xd73f9466b0c710dde7c345775f14b3be 0.813555220473012 375 NONE sbb_T1c_M0_SSVM
0xe531418980aaa61c0b078360aa71b72e 0.812959894787782 376 NONE sbb_T1c_M0_SSVM
0xd1fe1f605f01206d6536e16ae78773e4 0.812142467842038 377 DEATH sbb_T1c_M0_SSVM
0xd382daa6df0dca40fa815237180121d8 0.810547173063691 378 DEATH sbb_T1c_M0_SSVM
0xfd045973a91ea294e06a6e4cfb4e2266 0.808653660904016 379 DEATH sbb_T1c_M0_SSVM
0xe9beee41d19d1df18d9dd63e46cb3639 0.807919039117726 380 NONE sbb_T1c_M0_SSVM
0xf4ad456ae4633925638b9d86775112eb 0.804868835461428 381 DEATH sbb_T1c_M0_SSVM
0xf6e75b250207b024bc7a27acf84e2ea1 0.804732841039866 382 DEATH sbb_T1c_M0_SSVM
0xef586cf6bff28e51a5fa24ecfd7ddf76 0.803805702018327 383 NONE sbb_T1c_M0_SSVM
0xed9f6346883b01b782874a9e1eba5cf3 0.803608169981946 384 NONE sbb_T1c_M0_SSVM
0xde5560cc3800f3797a36528b728b9b6f 0.802476660836705 385 NONE sbb_T1c_M0_SSVM
0xfdb6f07f84bc999d042f37dc3450856e 0.80226609577683 386 DEATH sbb_T1c_M0_SSVM
0xd01e14bab20896317481dfeaf5a802b0 0.800964486962146 387 DEATH sbb_T1c_M0_SSVM
0xf5f92fa359184bb3bc4128daa09ad096 0.800647318455113 388 NONE sbb_T1c_M0_SSVM
0xce895e32981f982d9e5aba4ace424836 0.800112409654942 389 NONE sbb_T1c_M0_SSVM
0xd1e37b682a43d315c4fd71ba43c0b8f9 0.799571021367197 390 DEATH sbb_T1c_M0_SSVM
0xf61e73ba8eb74ccfd07eee98cc7a8a55 0.799132724524939 391 DEATH sbb_T1c_M0_SSVM
0xdcf3911b063dd9046757764fce68259d 0.798901169257812 392 DEATH sbb_T1c_M0_SSVM
0xdea18430383df9271f5f954a1d7aa89f 0.79876770652832 393 DEATH sbb_T1c_M0_SSVM
0xe9e31c6c3df4f0fb15ebe7c24b555e85 0.798556281778602 394 NONE sbb_T1c_M0_SSVM
0xfed3fdca580330c527c11e25d1bfff5 0.796842829290176 395 DEATH sbb_T1c_M0_SSVM
0xd3e2b55ee0fd70cac3252cd2c6bce690 0.796650712367071 396 DEATH sbb_T1c_M0_SSVM
0xcbf7accfa3bcf16c3807619ccc352295 0.796555249657933 397 DEATH sbb_T1c_M0_SSVM
0xcdb71c2bc002940b26e821531346fea6 0.792953671250913 398 NONE sbb_T1c_M0_SSVM
0xe561d548069a6f943e73d3242b6ad1e 0.792751981267747 399 DEATH sbb_T1c_M0_SSVM
0xfe68d3eaaab39e7ec05260e9f6f3b594 0.791919534615737 400 DEATH sbb_T1c_M0_SSVM
0xd3761335574bf2556048bb99f96c4012 0.79190166665826 401 NONE sbb_T1c_M0_SSVM
0xf1857c0071ce51fa75db9c0ccd92b34a 0.791789246814119 402 DEATH sbb_T1c_M0_SSVM
0xd08ed43907ef30124fcdce84155aecff 0.791711387649663 403 DEATH sbb_T1c_M0_SSVM
0xf842e0468ca5476e1ba6c4045602bff4 0.791335193652301 404 DEATH sbb_T1c_M0_SSVM
0xe9552678c63ee3b6c313766e97753dbc 0.787527774987881 405 NONE sbb_T1c_M0_SSVM
0xfecb6f4ce1d71a01be44131645701abb 0.786321907803653 406 DEATH sbb_T1c_M0_SSVM
0xebae5bb4a98b834864213f16f917dc69 0.785898745317068 407 DEATH sbb_T1c_M0_SSVM
0xe0b8838933d9689cf370722b5475b6b2 0.785035834778398 408 NONE sbb_T1c_M0_SSVM
0xf97f3c95956730a68e1fe95cd9e451a2 0.781674670812831 409 NONE sbb_T1c_M0_SSVM
0xf37c5fe1faef6a4d71371899ffeb72a8 0.781433706491106 410 NONE sbb_T1c_M0_SSVM
0xe68dc2738e74844599b493a91d2aaa1b 0.781041688485514 411 DEATH sbb_T1c_M0_SSVM
0xdb66fea36c893712201bde1649b162fe 0.779641848191112 412 DEATH sbb_T1c_M0_SSVM
0xdb6d154fab2869d12355606be2b1a0a5 0.779104503270451 413 DEATH sbb_T1c_M0_SSVM
0xda8ab807ad39891ba8d380eae28d7301 0.777841572957302 414 NONE sbb_T1c_M0_SSVM
0xfecb8afae7771e7ae7d8df54b515c382 0.776163078476521 415 NONE sbb_T1c_M0_SSVM
0xd699c91c0883d77bc456636836f4757c 0.771520983633235 416 NONE sbb_T1c_M0_SSVM
0xf018ff02e490ebf136e0462351c9995a 0.771341485307263 417 DEATH sbb_T1c_M0_SSVM
0xd9f5dd90d4a81a83ecea564806ce241b 0.770955107707368 418 DEATH sbb_T1c_M0_SSVM
0xd5eb540595f0135ed7b2c9c3d36f4940 0.769656970253762 419 DEATH sbb_T1c_M0_SSVM
0xed67617d0fa4e6715aeb4bb060397e9a 0.767974619822812 420 NONE sbb_T1c_M0_SSVM
0xff9195ae018b73c7b70024c9dbf7c8d8 0.764892787688094 421 DEATH sbb_T1c_M0_SSVM
0xd581144148304667e66df70e8913f154 0.764241140218649 422 DEATH sbb_T1c_M0_SSVM
0xfba93d2e1f10b9e61d390fd5859a056a 0.763717784572785 423 NONE sbb_T1c_M0_SSVM
0xeb9c9a12516b2404f03664d4ff99a05 0.761859599637419 424 DEATH sbb_T1c_M0_SSVM
0xcac6a961f66514dd979095db19a0869d 0.759969948274237 425 NONE sbb_T1c_M0_SSVM
0xd19afb26224fd08b3397eda11712295c 0.752870770618601 426 DEATH sbb_T1c_M0_SSVM
0xe754c66fac138eda1909d340c552150f 0.748883967579043 427 DEATH sbb_T1c_M0_SSVM
0xf833a171c98fd18777becac7328377e5 0.74861504249537 428 NONE sbb_T1c_M0_SSVM
0xd5426d42d32f8b8fde9d9c98d48db81f 0.746627229194779 429 DEATH sbb_T1c_M0_SSVM
0xf8f2dec4be3bc8d3dc2a48831dd912be 0.745939736669811 430 DEATH sbb_T1c_M0_SSVM
0xf81866bdc8527ad3c31b8c3f120799a1 0.74120426508886 431 NONE sbb_T1c_M0_SSVM
0xec30d4197a860e6d31f7a1336b256568 0.740321043234769 432 DEATH sbb_T1c_M0_SSVM
0xe9198c51686e6b6214bdb714eaf10a2e 0.736159021869952 433 DEATH sbb_T1c_M0_SSVM
0xd5f53f8c1c47ccaa895aaf51ced0e80a 0.7256369433583 434 DEATH sbb_T1c_M0_SSVM
0xd027b421b5e34a676855471f7f017fe 0.724692631746978 435 NONE sbb_T1c_M0_SSVM
0xed0929b7fd7230de56f15b1497383e77 0.721768457298364 436 NONE sbb_T1c_M0_SSVM
0xca4c63706241452e87804f29621c5f01 0.716749061398445 437 DEATH sbb_T1c_M0_SSVM
0xe75b0b6e1f9037b4c31a1752618e81b5 0.714604186348694 438 DEATH sbb_T1c_M0_SSVM
0xec0916bb33028ec2d073de8f7d9b72c9 0.713388523179425 439 DEATH sbb_T1c_M0_SSVM
0xcfc44323cbf71cf449d6fd693663bc9b 0.713335275676928 440 DEATH sbb_T1c_M0_SSVM
0xcefea2d935a9883363305f711db5fa4e 0.712365439643493 441 NONE sbb_T1c_M0_SSVM
0xd27701d9404e65f294879671f8969a3a 0.711610456569753 442 NONE sbb_T1c_M0_SSVM
0xf9a0baa40a5828cc4eb1e2c2e2381da2 0.7100198667182 443 NONE sbb_T1c_M0_SSVM
0xdc20584b36f70c4819c9b9e7ac9b2e25 0.708224728505326 444 DEATH sbb_T1c_M0_SSVM
0xe8885be345a04b02b8a8086f9859e0ba 0.701996125722237 445 DEATH sbb_T1c_M0_SSVM
0xe3741364e8202994126d8ec536af456 0.697096112568698 446 NONE sbb_T1c_M0_SSVM
0xdca93142c5222da1fe22972387e81d8d 0.69519262134214 447 DEATH sbb_T1c_M0_SSVM
0xd5bd3c39db0ea9ec7fe864c579a8564a 0.691597208550206 448 NONE sbb_T1c_M0_SSVM
0xde976fcdacf209af454093bc0d008a50 0.685355293677259 449 NONE sbb_T1c_M0_SSVM
0xff0634b3f2b17fafdea8696089231df 0.684272599833022 450 DEATH sbb_T1c_M0_SSVM
0xec78b838a78beb8f98adeacf43c3d646 0.677222515275202 451 NONE sbb_T1c_M0_SSVM
0xfdd6cfa13f857bca9b30dd309aa93b2d 0.671545328283783 452 DEATH sbb_T1c_M0_SSVM
0xe261d744e25db88b07b0a0702f5843a1 0.667628435091768 453 NONE sbb_T1c_M0_SSVM
0xd54a2ea81d89a51632d04811cebeb8c3 0.667410660845615 454 NONE sbb_T1c_M0_SSVM
0xe8be87187b3a234913efaecbfd380340 0.66664738883572 455 DEATH sbb_T1c_M0_SSVM
0xe5c549844deda60cee96d67026b28ca7 0.666455134159841 456 NONE sbb_T1c_M0_SSVM
0xdfb76e5655be6ec4c62c2cb98276aaa3 0.663116395630271 457 DEATH sbb_T1c_M0_SSVM
0xf5895fdb58c6d5fe6a2717d546c14764 0.65663670484713 458 DEATH sbb_T1c_M0_SSVM
0xfca94c4f6ab5f79eaf0b7651c88e810b 0.651522554409575 459 DEATH sbb_T1c_M0_SSVM
0xfe27d56439d608304d62e96402d693ad 0.634529497209704 460 DEATH sbb_T1c_M0_SSVM
0xd49caf56339d1ef045ea7e03950039d4 0.632379487893058 461 NONE sbb_T1c_M0_SSVM
0xe9eea3a099d373920d539f5c82a4a735 0.632061451696348 462 DEATH sbb_T1c_M0_SSVM
0xe47392b2331f8663812fe4c0b3a1c2b5 0.625272653244664 463 NONE sbb_T1c_M0_SSVM
0xd36718c707a259c6cad88c5b0f12bef9 0.623162024714921 464 DEATH sbb_T1c_M0_SSVM
0xdea07ddceb79e747808204611ef914e6 0.621130373825068 465 NONE sbb_T1c_M0_SSVM
0xe059f63a710ae8a31beab3c6eb897775 0.611412827966897 466 NONE sbb_T1c_M0_SSVM
0xd066b9335c8265ae4ca035e11e6c53d5 0.610241512709957 467 DEATH sbb_T1c_M0_SSVM
0xfcd62abf3423c170425d2a1c3c2eeb9 0.607255928399771 468 NONE sbb_T1c_M0_SSVM
0xca872759930080e621030d72b91eaa3a 0.596890825015891 469 DEATH sbb_T1c_M0_SSVM
0xe9232b72bd6ea6c9e228c57744a7fc39 0.594900321406154 470 NONE sbb_T1c_M0_SSVM
0xd6619d152577d2686281f82eeb8dd69d 0.586976352009478 471 DEATH sbb_T1c_M0_SSVM
0xf467dbbc2c3f8b542b86b790c5b911a2 0.586682872482324 472 DEATH sbb_T1c_M0_SSVM
0xfa81a092708523789aa2411a4cc59db8 0.580604754324773 473 NONE sbb_T1c_M0_SSVM
0xf50bc52bad1fb3ab9d255d2b22ef09a1 0.574886910376268 474 NONE sbb_T1c_M0_SSVM
0xcca053eb67d949b9e81f731aea923a97 0.572582125325563 475 DEATH sbb_T1c_M0_SSVM
0xfc4fc92c9512e0a9fd0658b0ae42c093 0.561925352275904 476 NONE sbb_T1c_M0_SSVM
0xe01aad010bf5a1a693431e2394b35293 0.559984505099084 477 DEATH sbb_T1c_M0_SSVM
0xe9b435a20f9284d389e1f4a19208016d 0.548023768908074 478 NONE sbb_T1c_M0_SSVM
0xf22dbd73e845b2d27907e07de22d7c29 0.54780416670049 479 NONE sbb_T1c_M0_SSVM
0xe427d2e116a2eb36221ba20ae7d44e4b 0.541601373855348 480 DEATH sbb_T1c_M0_SSVM
0xed10665bf8c36beb50f95ea6199c0017 0.530969137143934 481 NONE sbb_T1c_M0_SSVM
0xcee0d011ee4d68ba5f89822601827575 0.513226652563828 482 DEATH sbb_T1c_M0_SSVM
0xee673c7ae2e5429e5e7d7bb8021c1f97 0.500685655945686 483 NONE sbb_T1c_M0_SSVM
0xe47aab7184db16d2565593d71df14757 0.494827720034612 484 DEATH sbb_T1c_M0_SSVM
0xd6e36dc40dc7f14d135558b882a20e01 0.451872977752015 485 DEATH sbb_T1c_M0_SSVM
0xcca82b41a632f3e9a4388950162a75cd 0.437930059028309 486 DEATH sbb_T1c_M0_SSVM
0xd935049213ea4ab7213df4ba9d0011bc 0.437477464424711 487 NONE sbb_T1c_M0_SSVM
0xdfd617655582234cf254aa4a1f8a54c2 0.357738812540483 488 DEATH sbb_T1c_M0_SSVM
0xe6899e5673718dd10ace49ea67eb434b 0.332647440128508 489 NONE sbb_T1c_M0_SSVM
0xea8853b3ecfda6e662b26ae8814b3894 0.31916023614159 490 DEATH sbb_T1c_M0_SSVM
0xea9b939a5421bff79ef3e8b003145a9a 0.134241055608337 491 DEATH sbb_T1c_M0_SSVM
0xf3f59173eebadd3eae124f69cbb33cfa 0.108962738992533 492 DEATH sbb_T1c_M0_SSVM
0xd09c40ceeeb040913893df79e296559 0.0948685092482982 493 NONE sbb_T1c_M0_SSVM
