0xe1243501dccecd29c201b7a93e1c3785 0.959803321114434 0 PEG sbb_T1b_M0_SSVM
0xfb403b2eeb639d2539f1cb7e3a3bfa49 0.959264921596926 1 PEG sbb_T1b_M0_SSVM
0xd3ee37821226aa86382711f993370ef8 0.957721386781595 2 NONE sbb_T1b_M0_SSVM
0xf06146e45ec0cc14307c87efa6207d46 0.957684907882486 3 NONE sbb_T1b_M0_SSVM
0xf302dc063ff300d32a6ee2efab28b92d 0.957306997402371 4 NONE sbb_T1b_M0_SSVM
0xd7d862d8832214c47e56f7bf814a80ab 0.95640859162075 5 PEG sbb_T1b_M0_SSVM
0xfbdb5a662aec0ca496557ec37f20d219 0.953876731056108 6 NONE sbb_T1b_M0_SSVM
0xf529bd25b4480431bfbba5d6f2e28a74 0.953311713653525 7 PEG sbb_T1b_M0_SSVM
0xd53604e8a14246f6ac13809f369bc9fe 0.953117522842164 8 PEG sbb_T1b_M0_SSVM
0xdd9bf04b864ca70e3747743c75fd5d15 0.952882729256692 9 NONE sbb_T1b_M0_SSVM
0xee8bfccacb125b541b17fdc2464757cc 0.952226424037626 10 NONE sbb_T1b_M0_SSVM
0xf688e66f6457a8d658ff91c39e74fded 0.95214927340073 11 NONE sbb_T1b_M0_SSVM
0xcf9644601c67a22a9c27ccfa1abdedf1 0.951996704019824 12 NONE sbb_T1b_M0_SSVM
0xea6e9e8593e17577e3160c2a1946d1f6 0.951684204499626 13 NONE sbb_T1b_M0_SSVM
0xeab860b4b293424189f429e7d089d61a 0.950578355895014 14 PEG sbb_T1b_M0_SSVM
0xf69395f0e9f8d7696c20d803a23345bd 0.949637199787469 15 NONE sbb_T1b_M0_SSVM
0xf7364a4981e0237889814677a80f28c7 0.948745848397104 16 PEG sbb_T1b_M0_SSVM
0xd1096bee9a6c72e45237d987dc77672f 0.948722430121671 17 DEATH sbb_T1b_M0_SSVM
0xfd82b366738c82f8a704f1cac062c88b 0.948511645385713 18 DEATH sbb_T1b_M0_SSVM
0xee954eee6763a75b49356fd60400df96 0.946981189268405 19 NONE sbb_T1b_M0_SSVM
0xe1861d1a19780afbf6e583e164e31737 0.946768625142358 20 PEG sbb_T1b_M0_SSVM
0xf71142822940f1367d768de7f2c82c00 0.945540379526418 21 NONE sbb_T1b_M0_SSVM
0xd091879593136949b2a475202c5e04fa 0.944366985222006 22 PEG sbb_T1b_M0_SSVM
0xd2a42221873cdea520585a5d5c88969f 0.944337095996067 23 NONE sbb_T1b_M0_SSVM
0xe3fe42b609b1deda32fdd589e8bc3f4d 0.94397400326956 24 NONE sbb_T1b_M0_SSVM
0xd31b65ca63d9b4aa65f7c18ab924189a 0.943969793027082 25 PEG sbb_T1b_M0_SSVM
0xdfd6ff34ba7f6abb38fa7ae9894d4d06 0.943797479584541 26 NONE sbb_T1b_M0_SSVM
0xf3db66d99e46915816ef68277c518c7b 0.943131522915523 27 DEATH sbb_T1b_M0_SSVM
0xf26833e0957ae6825fc358ac4201c535 0.942852754260358 28 NONE sbb_T1b_M0_SSVM
0xfa239063a630e9e5929acf1f91f9a3da 0.942729977876078 29 PEG sbb_T1b_M0_SSVM
0xfd2e06a25a21d1558c6bd8fdfa1d5b6f 0.942112346636432 30 PEG sbb_T1b_M0_SSVM
0xcf9844d5d100e482d188e39e0031c174 0.941406116220926 31 PEG sbb_T1b_M0_SSVM
0xeae8c46d82b48cc87efccde5a796cc0 0.941322791247789 32 DEATH sbb_T1b_M0_SSVM
0xe0020cb9777c4cfa55a538a0b30bb4fb 0.941286958706936 33 NONE sbb_T1b_M0_SSVM
0xd0e71a1c656557fd7856d9e3c6b15faf 0.940727949108748 34 PEG sbb_T1b_M0_SSVM
0xedbd9bc377e62cb50bf2d3357144ea5c 0.940120051052435 35 NONE sbb_T1b_M0_SSVM
0xe95317d9ab2f9930a73d4bbc86c4c13a 0.939936501741364 36 NONE sbb_T1b_M0_SSVM
0xe1911c880481ae1c7ceea1c15ee76b7a 0.939684798901193 37 PEG sbb_T1b_M0_SSVM
0xda3cd952705fe75d00d50ca811b8db7 0.939615456487216 38 DEATH sbb_T1b_M0_SSVM
0xd707b3b19e95bb3390bbca43a3c84861 0.93929423592435 39 PEG sbb_T1b_M0_SSVM
0xfd0b34dab06d3ffbac27187fdf686edb 0.939193357814418 40 PEG sbb_T1b_M0_SSVM
0xd6f42694625c79b8219804527461c42 0.938769089077166 41 NONE sbb_T1b_M0_SSVM
0xffb2d295bf7d88afcf7738b39ff9503d 0.938752408825875 42 DEATH sbb_T1b_M0_SSVM
0xf8989307a3cc4e26889fd3e10f022ed5 0.938358303405274 43 DEATH sbb_T1b_M0_SSVM
0xf4fa7bd79c7b95cb9e90f1e80687dc56 0.937660913484949 44 NONE sbb_T1b_M0_SSVM
0xe611e0187ce0a2383d06e8b7c4bdd82d 0.937503905755651 45 NONE sbb_T1b_M0_SSVM
0xe9fba3e3fd2846481470a98032acd466 0.937349460757517 46 DEATH sbb_T1b_M0_SSVM
0xd0b78902dae8914c1fd91189043a86fa 0.937334391101995 47 PEG sbb_T1b_M0_SSVM
0xd9322524393a875d28f0c966d84d8293 0.93719279529498 48 NONE sbb_T1b_M0_SSVM
0xfa1fc7c435f2de6bdb7ed4fc644e5aa6 0.937039642716885 49 PEG sbb_T1b_M0_SSVM
0xf6bc8bd3fbd838638e0f8515ec26c07a 0.936680283879875 50 NONE sbb_T1b_M0_SSVM
0xfe669ba1f416c40fe313e7c67b2acf26 0.936347776759457 51 PEG sbb_T1b_M0_SSVM
0xd83e16c58a38a6710258d51ef5e55c2b 0.93586804681901 52 DEATH sbb_T1b_M0_SSVM
0xf8755572377a8aec60f0daf413ccbb4b 0.935233625099936 53 PEG sbb_T1b_M0_SSVM
0xf34134b9e4d84f0747e1b671e7ffc77f 0.934698812807017 54 NONE sbb_T1b_M0_SSVM
0xfa14498bd96bd8a6aa15cf75f9a3fb85 0.934659870367692 55 NONE sbb_T1b_M0_SSVM
0xd987b922e81f9eaeebb9a09c2bfa0e30 0.933495129978116 56 DEATH sbb_T1b_M0_SSVM
0xe09643fdfa382af3b615067ba53e3ec9 0.933478380353736 57 PEG sbb_T1b_M0_SSVM
0xd11d7c25b92a35bb6263f1862fc4ce50 0.933309255837173 58 PEG sbb_T1b_M0_SSVM
0xe13591723f3dd735ab755d1c7b9b7299 0.933010528350841 59 PEG sbb_T1b_M0_SSVM
0xd5426d42d32f8b8fde9d9c98d48db81f 0.933004252253635 60 DEATH sbb_T1b_M0_SSVM
0xf82230e4bcd875a07dc1bf0771cee5a2 0.932402858814735 61 NONE sbb_T1b_M0_SSVM
0xea31d04befc74fc9e2fcd95610257670 0.932389389818096 62 PEG sbb_T1b_M0_SSVM
0xea09e79af31bf049776f88fb4dd6cfe2 0.932051493283431 63 PEG sbb_T1b_M0_SSVM
0xeceb727a34f8dde7f27bbdcc70559e3c 0.931951882785514 64 NONE sbb_T1b_M0_SSVM
0xe34b5e762bb7ce57ec0aa9eda499b7d7 0.931806207028577 65 NONE sbb_T1b_M0_SSVM
0xf9cf1b69a3cac1563c0cb355d7df83c7 0.931598794780995 66 PEG sbb_T1b_M0_SSVM
0xd47e5fd14b1f26a916ed2808c6cb0dc2 0.931502790186687 67 NONE sbb_T1b_M0_SSVM
0xfd7364d0c76517b4939aed94bf9558d 0.931465404859093 68 DEATH sbb_T1b_M0_SSVM
0xf44f6c6ed032569f224aca85ed0cbfec 0.93122859979659 69 DEATH sbb_T1b_M0_SSVM
0xf1c610f643e2254e1e6bcd9f9fbb788f 0.930974047639569 70 DEATH sbb_T1b_M0_SSVM
0xd5043ae62b88bbb0e6f5fde21a8a65a2 0.930970462698532 71 NONE sbb_T1b_M0_SSVM
0xff800da9a7a2fc4a01db45e4e8bb9b63 0.930809602660164 72 NONE sbb_T1b_M0_SSVM
0xf7bf2541be8877afdf8a7b3b3438fc52 0.930419023751197 73 DEATH sbb_T1b_M0_SSVM
0xeb41451dd6d05415b2e95bec7d70425c 0.93007752503834 74 DEATH sbb_T1b_M0_SSVM
0xd1c7d3ccbb99ca71b975d1e0ec5b8f1a 0.929899936700926 75 NONE sbb_T1b_M0_SSVM
0xd56863a27c027e278d4ff20e932056e3 0.929627644189845 76 PEG sbb_T1b_M0_SSVM
0xe68286b6e6394818e23e42eeebb6b5e2 0.92959677229055 77 DEATH sbb_T1b_M0_SSVM
0xdf77d399fe527cf039cdaf28269c5aa5 0.929250393957007 78 NONE sbb_T1b_M0_SSVM
0xef2d65a03b94ad521ce01a01902cddbc 0.928561837159642 79 PEG sbb_T1b_M0_SSVM
0xd5638c7f81b87b1b60eb380abb81ba6b 0.928119732461825 80 NONE sbb_T1b_M0_SSVM
0xe1f9255fd859bedca208a17db00b5737 0.928067693896161 81 PEG sbb_T1b_M0_SSVM
0xf213112adb4999d5a440d900a689fb5b 0.927588913917522 82 PEG sbb_T1b_M0_SSVM
0xe71b3e912d71806b02f8dc57534c7e5c 0.927551897766939 83 NONE sbb_T1b_M0_SSVM
0xd9ce87a4ce5b4b7068a7718a2b6d70a8 0.926798834465158 84 PEG sbb_T1b_M0_SSVM
0xefdf46113860766941eca0395f5f5a78 0.926537873569619 85 PEG sbb_T1b_M0_SSVM
0xfadd704d172ee3faaca14a6aecebe5db 0.92640803091174 86 NONE sbb_T1b_M0_SSVM
0xd7321cbd985268c4141bcc4485f73e54 0.926372844937301 87 PEG sbb_T1b_M0_SSVM
0xff0dc46026c4c7377acc0612dd14888d 0.926339663099535 88 NONE sbb_T1b_M0_SSVM
0xd317b8d1717b6cde303ef3732e3cfb71 0.926041894906685 89 DEATH sbb_T1b_M0_SSVM
0xd41a3ee089ce64b7aab7b3f5ff2b08a6 0.924772222668762 90 PEG sbb_T1b_M0_SSVM
0xf280278b67e8710e087249dad21da735 0.924186962002673 91 PEG sbb_T1b_M0_SSVM
0xe03eb5db3bd06ad4f2e316136029276e 0.9241604728137 92 PEG sbb_T1b_M0_SSVM
0xfb08439610a68a0e85a6eb06d412e34c 0.924016369866903 93 PEG sbb_T1b_M0_SSVM
0xdc44a5f974cd0e0be3a4afa4e5934e17 0.923415467714947 94 NONE sbb_T1b_M0_SSVM
0xd790f990b440716f8ddbd961e5881a42 0.922913159385841 95 NONE sbb_T1b_M0_SSVM
0xe5a7736524fb5fcf98c1aef549cab227 0.92215994976335 96 PEG sbb_T1b_M0_SSVM
0xcf467518a0b8918ab7df44c6f51d1235 0.922083921664339 97 DEATH sbb_T1b_M0_SSVM
0xd1f3a8b31288234dcb941265851400ba 0.921657292180779 98 DEATH sbb_T1b_M0_SSVM
0xe87724de950aa61be595c8805ea7baeb 0.92164014616844 99 NONE sbb_T1b_M0_SSVM
0xff2a4d24028b93bb9f199542657cafce 0.921118765581373 100 PEG sbb_T1b_M0_SSVM
0xdab7039de7c92f9467307883d56c0151 0.920515186478182 101 DEATH sbb_T1b_M0_SSVM
0xf94bb7a20ca8cb7706f518420785d5e0 0.920475201990765 102 DEATH sbb_T1b_M0_SSVM
0xec1b1fb1dcc7b585296d94f07743df75 0.920094723561497 103 PEG sbb_T1b_M0_SSVM
0xfbac1c67b95ce1057128c431a2cdee75 0.92008028144019 104 DEATH sbb_T1b_M0_SSVM
0xec4bcb0a1930afa5232d2f6dc86b9177 0.920056275882172 105 PEG sbb_T1b_M0_SSVM
0xfdeac27ee0e72aca88b427bb87909368 0.919953073455072 106 PEG sbb_T1b_M0_SSVM
0xfe0a4f8776ac746a638672323b26970f 0.919860740133513 107 DEATH sbb_T1b_M0_SSVM
0xf188774bc59c58292edda7342dde3a3a 0.919622321669943 108 PEG sbb_T1b_M0_SSVM
0xe4fdcdd2a4c1d58debdf622a8b7c786 0.919111908260383 109 PEG sbb_T1b_M0_SSVM
0xd4ea23e326cd8074d2a8e19560589a3f 0.918998119541812 110 DEATH sbb_T1b_M0_SSVM
0xea0eff4909b5dd55afbef60ffb4e3101 0.918836071005698 111 PEG sbb_T1b_M0_SSVM
0xdebc17bef1084afcb99a1e691bc29ae 0.918684179391445 112 NONE sbb_T1b_M0_SSVM
0xcea28218baea20cfc121f8055282113f 0.918434884507278 113 PEG sbb_T1b_M0_SSVM
0xe05df002506b4e86e045cc51a915e10 0.917696026288412 114 PEG sbb_T1b_M0_SSVM
0xf4223f279969356614e148096f0ff626 0.917399988719127 115 PEG sbb_T1b_M0_SSVM
0xfd6f2c6acb64a6e8b22b761c7058f8b1 0.916928319658677 116 NONE sbb_T1b_M0_SSVM
0xf710c42ea82b240dd90161a9fef83287 0.916494004156008 117 PEG sbb_T1b_M0_SSVM
0xebb8cde3b65772cb963be4146bf426e5 0.91567075091999 118 DEATH sbb_T1b_M0_SSVM
0xd7bf8d698833b47c11ab207cc04b89c9 0.915650985585719 119 NONE sbb_T1b_M0_SSVM
0xd5c337472199810ecb872821d9788346 0.915599035231541 120 NONE sbb_T1b_M0_SSVM
0xdc103e9d0b714bbf9039509839a33d58 0.915579660340929 121 DEATH sbb_T1b_M0_SSVM
0xfdc48e7bc026e1057eac3f2461cdccdc 0.915541603153397 122 NONE sbb_T1b_M0_SSVM
0xd918b145d162d1179dd34d36f51be722 0.915492105301303 123 PEG sbb_T1b_M0_SSVM
0xe922d2f4df2427f8372559c67f9558ff 0.914536788078341 124 DEATH sbb_T1b_M0_SSVM
0xdb5dc80f29a179038e60bbffd2c97e64 0.914510002837824 125 DEATH sbb_T1b_M0_SSVM
0xe28164b3703a515d07431e9a0cd7e326 0.91413974918482 126 NONE sbb_T1b_M0_SSVM
0xeb98c8fbd6d496d367e7e63250ff829 0.91407556831946 127 PEG sbb_T1b_M0_SSVM
0xf10d4ea92d3f8bd97a8e97335420ec9d 0.913927961988158 128 NONE sbb_T1b_M0_SSVM
0xfd2274eb15b71024039d32eb1edefe55 0.91351503279158 129 NONE sbb_T1b_M0_SSVM
0xf3f096ee783aa5fd0723a87fb8bc12be 0.91346474353132 130 PEG sbb_T1b_M0_SSVM
0xd417279bb6053beedd7777f2c6f35582 0.913091512920138 131 PEG sbb_T1b_M0_SSVM
0xd675843b3b012885484e0637ea0333f8 0.912944110202878 132 DEATH sbb_T1b_M0_SSVM
0xeea35f2d789b18b2869b6be01a6d016b 0.911121959205341 133 NONE sbb_T1b_M0_SSVM
0xf25577a5c837f2571b84329ad66e0141 0.910441619640521 134 NONE sbb_T1b_M0_SSVM
0xed33bc879bc2074ac2e72632e9505f81 0.910008794200484 135 NONE sbb_T1b_M0_SSVM
0xf4f2553c05bed4c3641960d1326ae10b 0.909839567233689 136 DEATH sbb_T1b_M0_SSVM
0xffea07026ee4819bc346649ddad2d740 0.909574020744635 137 NONE sbb_T1b_M0_SSVM
0xdab5b4c5bf823ca40ccf04b019db8012 0.90957232230684 138 NONE sbb_T1b_M0_SSVM
0xf78ead80e7859b6ad13d1a038a7db8f8 0.90892374869735 139 NONE sbb_T1b_M0_SSVM
0xced4fcea0fec8a743c479bce1bce3ca6 0.908695145468054 140 NONE sbb_T1b_M0_SSVM
0xd26d82e70be8a467872b4b23cd851c3a 0.908507458969693 141 NONE sbb_T1b_M0_SSVM
0xe52cf316e1e3097536676407e4e031a0 0.908356382181697 142 NONE sbb_T1b_M0_SSVM
0xd97fec54dc54fa1b60a32665993d16c4 0.908038267612506 143 PEG sbb_T1b_M0_SSVM
0xd99207a82b9ebf093a36d905b4104fb5 0.907995464970507 144 NONE sbb_T1b_M0_SSVM
0xd7b06c10449c68e86de95bec01aab1ff 0.907965982965079 145 DEATH sbb_T1b_M0_SSVM
0xfbc694fefaa0cd13396b8dc271863e35 0.907812841643541 146 PEG sbb_T1b_M0_SSVM
0xf9a50982020767a3819aef62ef7cf85a 0.907247055051238 147 NONE sbb_T1b_M0_SSVM
0xe7a85df03166d972a57667b88a86f8c 0.907082264960845 148 NONE sbb_T1b_M0_SSVM
0xf5b897d01df647df2ae8611b87206c69 0.90694218945404 149 NONE sbb_T1b_M0_SSVM
0xfb6b11f879e8c94bc40e422f9219b39a 0.906714507360114 150 PEG sbb_T1b_M0_SSVM
0xd73350f7d616cb803f96f4f17678fd8f 0.905229515761085 151 PEG sbb_T1b_M0_SSVM
0xfd393a5687cc418359d4af8ce52fb04 0.904686514358327 152 NONE sbb_T1b_M0_SSVM
0xec869599b2d2828d526ab101d0aca22 0.904330641678196 153 NONE sbb_T1b_M0_SSVM
0xdc56995bc7b7f90c80986aabdbc5ada1 0.904053722389522 154 DEATH sbb_T1b_M0_SSVM
0xd244a1f9c20c3f18776c0091e4a2f1 0.903284237740054 155 PEG sbb_T1b_M0_SSVM
0xd60c2abd7d42886e8a351fe84fa94a4 0.903049939182623 156 NONE sbb_T1b_M0_SSVM
0xe75da17b210d09562c2494dbe0146b54 0.903032794327904 157 PEG sbb_T1b_M0_SSVM
0xfa9882c168e02e5b6a87757e6b6b9b22 0.902166988325546 158 NONE sbb_T1b_M0_SSVM
0xf85acc7de3bbd88ce48d27e53a99e9e0 0.901276221884699 159 PEG sbb_T1b_M0_SSVM
0xe03c0e77caeee1175d806396ea7f394f 0.900784371308709 160 NONE sbb_T1b_M0_SSVM
0xda6be9a63492d9182cb0e1ba803a99f3 0.9006021391445 161 PEG sbb_T1b_M0_SSVM
0xd3690d7f264d59ee3b2ebc6169757913 0.900597929487519 162 NONE sbb_T1b_M0_SSVM
0xf48e752b802c35028d8fb7308b1e948b 0.900559946228437 163 PEG sbb_T1b_M0_SSVM
0xf4ad456ae4633925638b9d86775112eb 0.900498962019678 164 PEG sbb_T1b_M0_SSVM
0xeb7bf54305340d3d8e4f280abeb7473 0.900433282857967 165 NONE sbb_T1b_M0_SSVM
0xeca63b2021a883ab075f46cf5d0c0c4c 0.900342265217148 166 PEG sbb_T1b_M0_SSVM
0xfd1b9d000bab595412ab90d849c98927 0.900147823723206 167 PEG sbb_T1b_M0_SSVM
0xd39cb0c000c1454b265e9d35eff7b351 0.899840895403612 168 PEG sbb_T1b_M0_SSVM
0xfa54e05f1e04e2ed49738336f4c3a84f 0.899759315567537 169 PEG sbb_T1b_M0_SSVM
0xf2e4385cd98a2ef4b84b251b38f66b36 0.899327382939065 170 NONE sbb_T1b_M0_SSVM
0xd5eb540595f0135ed7b2c9c3d36f4940 0.899242003467898 171 PEG sbb_T1b_M0_SSVM
0xf53b3ecfaf3cf0310b8679cb9332c1d 0.899065120933697 172 PEG sbb_T1b_M0_SSVM
0xe2459ee8b4c7c07a0c3186049b3e1d43 0.898973958906295 173 NONE sbb_T1b_M0_SSVM
0xd333c66f71dcbce577612ecbfdaac2a8 0.897987061116345 174 DEATH sbb_T1b_M0_SSVM
0xeac9347ec35cb5dc7bb8c79a03b92c33 0.897908696608846 175 DEATH sbb_T1b_M0_SSVM
0xda807cd4f873161d3d7e48c2af27764c 0.897793910614091 176 NONE sbb_T1b_M0_SSVM
0xd27138ac1133341363af73b557e744f5 0.897712896768005 177 NONE sbb_T1b_M0_SSVM
0xd2117522df5b7e50c1495e661a655df1 0.897280105612365 178 PEG sbb_T1b_M0_SSVM
0xdab201c23fc655b741604ffff04fb576 0.896977273914985 179 DEATH sbb_T1b_M0_SSVM
0xd32d8b8316d08d4c934e0db5b4cbbbab 0.896778699757568 180 NONE sbb_T1b_M0_SSVM
0xfd1d5c688d32c592344c0b477526d572 0.89662745299964 181 PEG sbb_T1b_M0_SSVM
0xf9079405694f19b4849f68c05e06e474 0.89653780560737 182 NONE sbb_T1b_M0_SSVM
0xfecb8afae7771e7ae7d8df54b515c382 0.896431011313615 183 NONE sbb_T1b_M0_SSVM
0xff276b491e7bb2978e2c140930ef3fce 0.896187732062754 184 NONE sbb_T1b_M0_SSVM
0xfd70e2ffdac9d7227f1870f3b2e11fa6 0.895731073722185 185 PEG sbb_T1b_M0_SSVM
0xe7414527e960338f49cb82d3cd44bf58 0.89538391283131 186 NONE sbb_T1b_M0_SSVM
0xdb5f9c198ddfc05cebd57e05ce1f65b0 0.895364360301317 187 DEATH sbb_T1b_M0_SSVM
0xfc75a58392a25eac28f8eabd1693466b 0.895308130406162 188 PEG sbb_T1b_M0_SSVM
0xe1b521e5c1ba0a32f7c946d8e6e45785 0.894873888789443 189 NONE sbb_T1b_M0_SSVM
0xef1713560b9daaa3e34cb59dd8037f2f 0.894801816822331 190 DEATH sbb_T1b_M0_SSVM
0xf7800c3c145eb89a00eec9394dbf9aa0 0.894761399757221 191 NONE sbb_T1b_M0_SSVM
0xeecc0a28a6ea86c50224dcb2530f4706 0.89452670557745 192 PEG sbb_T1b_M0_SSVM
0xf1a0c725e956c72ee92590d8dcfefb58 0.894194697914013 193 NONE sbb_T1b_M0_SSVM
0xd5ffba53ba5ea58fbb117bc716014e12 0.894111889048203 194 NONE sbb_T1b_M0_SSVM
0xd6ceb97d4ad0065684a61fa954b61398 0.893621395282744 195 PEG sbb_T1b_M0_SSVM
0xe5503eff502e4079eeb7b70a8e81624f 0.893543867213951 196 DEATH sbb_T1b_M0_SSVM
0xdddf585b28242c749d927d5be4bc1301 0.893243745848809 197 NONE sbb_T1b_M0_SSVM
0xda5c46fe14bcc02dd330b6f33d4d2b69 0.893136714894123 198 NONE sbb_T1b_M0_SSVM
0xd6863d328e70d290894ca386305b1b0a 0.893020415478065 199 NONE sbb_T1b_M0_SSVM
0xd947420e9d8d72f2cc88d9aa94d716de 0.892472613380049 200 NONE sbb_T1b_M0_SSVM
0xd9f5dd90d4a81a83ecea564806ce241b 0.892426793063288 201 PEG sbb_T1b_M0_SSVM
0xe279e335141f1938c4902e0542794860 0.891877052350501 202 NONE sbb_T1b_M0_SSVM
0xf648b61ecd9ef2453a2e443d2ba184b3 0.891665913985008 203 PEG sbb_T1b_M0_SSVM
0xf38fdc686f3ccffbeb4d8cf31d935f5d 0.891298663745994 204 NONE sbb_T1b_M0_SSVM
0xf37c5fe1faef6a4d71371899ffeb72a8 0.891163807374003 205 NONE sbb_T1b_M0_SSVM
0xf45f2136fc41ad2a85fd11aa40df27c5 0.890805684877456 206 PEG sbb_T1b_M0_SSVM
0xdcf3911b063dd9046757764fce68259d 0.890744869991925 207 DEATH sbb_T1b_M0_SSVM
0xd5ec6e9cb0c8457b75773d5c896c97e2 0.890187275152147 208 NONE sbb_T1b_M0_SSVM
0xfe575fd2cf4dc619ebd32287145eea83 0.88986363566256 209 NONE sbb_T1b_M0_SSVM
0xe24abba1dbd4bf308cc5c3edd30f3aaf 0.889503525650865 210 PEG sbb_T1b_M0_SSVM
0xdd97a1c26fa0eb26748f253bbd060287 0.888678995911359 211 NONE sbb_T1b_M0_SSVM
0xd7717aa6288c4cf6ffab22bf25544fd7 0.888664899831621 212 NONE sbb_T1b_M0_SSVM
0xda04f2d9de35c2c9ede44c4d0b936626 0.8886604555672 213 NONE sbb_T1b_M0_SSVM
0xd74b09cba6eae315293ad458e6bcc9f2 0.888614171470008 214 DEATH sbb_T1b_M0_SSVM
0xd3b7c5fb0c510b91174df4e6ba01f066 0.888577745661786 215 NONE sbb_T1b_M0_SSVM
0xec8f4f8e33c61d083b87631e1fc49471 0.888456599783877 216 NONE sbb_T1b_M0_SSVM
0xe98b50fd5e1b71343db2db67b7e4b499 0.8883437246598 217 PEG sbb_T1b_M0_SSVM
0xea7bc1be9d79fce7043d34eee9eb3fb 0.888263994544541 218 NONE sbb_T1b_M0_SSVM
0xfd6cee8f40454120ee09c9fed24bcee1 0.887829890848697 219 NONE sbb_T1b_M0_SSVM
0xe18c99ff5b5c6cab7d196a80b58cac43 0.887558984346506 220 PEG sbb_T1b_M0_SSVM
0xf0d0a2f0ca020f23ae90fd5ff6dd2c8e 0.887533447743838 221 NONE sbb_T1b_M0_SSVM
0xeeaef2090e6697ea49cd4754c1e7fc52 0.88736386697005 222 NONE sbb_T1b_M0_SSVM
0xf99cf8d8fb1425bd6599947341f2c0a3 0.886852328120907 223 NONE sbb_T1b_M0_SSVM
0xec63a43004d49655727a77cf1907da9b 0.886804020687691 224 NONE sbb_T1b_M0_SSVM
0xd0c0c32aac515e84075e95bc5cf59b0f 0.886644266687935 225 NONE sbb_T1b_M0_SSVM
0xd36c161f1116c89d7b96cd22a3c72459 0.885755831230549 226 DEATH sbb_T1b_M0_SSVM
0xdf69e78176d39a97097368c5a5ab0aba 0.885510231665746 227 PEG sbb_T1b_M0_SSVM
0xd4d10cf490061439735b63ce33997c14 0.885068068630065 228 PEG sbb_T1b_M0_SSVM
0xf7e5cdefcee841d2b6cc6c1e60f488a1 0.884139998740351 229 PEG sbb_T1b_M0_SSVM
0xf09904ece3ec254d120d8e20d2a9b8d4 0.884114185939411 230 PEG sbb_T1b_M0_SSVM
0xdc95cdc9b3e1d6708a767449fa13ae6e 0.88404321635023 231 NONE sbb_T1b_M0_SSVM
0xe5144e8e0dc88e7e42acc50fa0a3bd5e 0.883781825809826 232 PEG sbb_T1b_M0_SSVM
0xe3571e398dc254de7638a7937035be70 0.883179440949955 233 NONE sbb_T1b_M0_SSVM
0xff9195ae018b73c7b70024c9dbf7c8d8 0.882842177008989 234 NONE sbb_T1b_M0_SSVM
0xd944807f0027bf43b7786e4bd9b8e9ef 0.882829255194321 235 DEATH sbb_T1b_M0_SSVM
0xde3ebb711c6d4dd2fc6aaed819e56904 0.882734475637166 236 DEATH sbb_T1b_M0_SSVM
0xff7def9ae79d9c965bf2ab55a63ab030 0.88265085696939 237 PEG sbb_T1b_M0_SSVM
0xfb313a896f03bab8c319262f69eb0cc 0.882204757447733 238 PEG sbb_T1b_M0_SSVM
0xfb6b88603cbfdcdccde6955a98e1f80f 0.881504035270908 239 PEG sbb_T1b_M0_SSVM
0xeaed8517edbbb934b65bb5ada72c4326 0.881500342399895 240 NONE sbb_T1b_M0_SSVM
0xefbd105005fbd4c913e67f1e04cea00b 0.881465287551379 241 DEATH sbb_T1b_M0_SSVM
0xf766abd56d68ad3f98a669e428314623 0.881449301892223 242 DEATH sbb_T1b_M0_SSVM
0xd5b544c682f3ff066e5c84bbb8ad6b79 0.881439713519358 243 NONE sbb_T1b_M0_SSVM
0xdf89ee61d738c89777ac8917091d7b5f 0.881019941837534 244 NONE sbb_T1b_M0_SSVM
0xd756384a94be6177659d1c36c1096aa4 0.879980700552868 245 PEG sbb_T1b_M0_SSVM
0xd08ed43907ef30124fcdce84155aecff 0.879817550695566 246 NONE sbb_T1b_M0_SSVM
0xf44e148c018f050d4bb41962d37da746 0.879198804970334 247 NONE sbb_T1b_M0_SSVM
0xfb8d03bebaba360a9a6086d80513029a 0.87811947720604 248 DEATH sbb_T1b_M0_SSVM
0xdeb42eb3e20ddcab47803195d2e8dd9 0.877977867218437 249 NONE sbb_T1b_M0_SSVM
0xef030f43e22e752a9a0e914582eaa50e 0.877921970795444 250 PEG sbb_T1b_M0_SSVM
0xdaac19ce7fb25ca7da5241ef8e13a995 0.877826250419702 251 NONE sbb_T1b_M0_SSVM
0xfaf00e55746069b29728118912287df5 0.876923359751935 252 PEG sbb_T1b_M0_SSVM
0xe2bcb1edb8f34ed00792515d9e8f45a4 0.876192789987793 253 NONE sbb_T1b_M0_SSVM
0xe7e58da752f329f4c502a1e99da9163e 0.875928413956333 254 PEG sbb_T1b_M0_SSVM
0xf739a7606c240c989e91c7f80684264d 0.875879551449352 255 DEATH sbb_T1b_M0_SSVM
0xf27bededb6f7fb7d23de734413cc8da2 0.87583416302536 256 DEATH sbb_T1b_M0_SSVM
0xea6ee484c00cfac85c2b41b32ec3945b 0.874926024378827 257 DEATH sbb_T1b_M0_SSVM
0xde16308d1d1aa5d87038aa16043406e7 0.874538491775183 258 NONE sbb_T1b_M0_SSVM
0xf2d107e07b799de2b3691edc490fcdee 0.874059819196288 259 NONE sbb_T1b_M0_SSVM
0xd718fbf5e5448b16ffb18ccaf30f844a 0.873782942304957 260 DEATH sbb_T1b_M0_SSVM
0xe97dee51285e88b33b4c0761066df1e 0.873728854309821 261 NONE sbb_T1b_M0_SSVM
0xe131e2e69ff731d99b83a026c9fe5580 0.873526023624728 262 NONE sbb_T1b_M0_SSVM
0xf8240b7302429c49504a9230ce6a5428 0.873175574717326 263 NONE sbb_T1b_M0_SSVM
0xffa9b0a3542580ba135d03f977b3e739 0.873050469277275 264 NONE sbb_T1b_M0_SSVM
0xe9a50e135fe75c3fddfdc1abfc798b17 0.872720084059544 265 DEATH sbb_T1b_M0_SSVM
0xee3f8a31ebc825766c6f42a32f3d806a 0.871964490455624 266 NONE sbb_T1b_M0_SSVM
0xf00d4ed29db7deec9288516fdb87da9c 0.871796418811135 267 NONE sbb_T1b_M0_SSVM
0xe011d3b8d1d2afa89a4f3ad809e82f61 0.871346012219371 268 PEG sbb_T1b_M0_SSVM
0xfba93d2e1f10b9e61d390fd5859a056a 0.871270196744216 269 PEG sbb_T1b_M0_SSVM
0xfed064f01a1708aac1ea3caca9e7aebc 0.870205211547468 270 NONE sbb_T1b_M0_SSVM
0xd2b30a43f8fb2fdf2541ce2b52411751 0.86852449942757 271 DEATH sbb_T1b_M0_SSVM
0xd82e2ab264accdedf1746f2fff6aa04e 0.86796065738093 272 DEATH sbb_T1b_M0_SSVM
0xd3e2b55ee0fd70cac3252cd2c6bce690 0.866929989952724 273 DEATH sbb_T1b_M0_SSVM
0xf56f03896712bce7df54fcc6c4d4e317 0.866746294871628 274 NONE sbb_T1b_M0_SSVM
0xeb5be1e7fd6b7b2b20b9fef2b9701c76 0.866551887282745 275 DEATH sbb_T1b_M0_SSVM
0xebae5bb4a98b834864213f16f917dc69 0.865590760302644 276 PEG sbb_T1b_M0_SSVM
0xfeee1b962c83164cd24885a790f8f1cf 0.864814364392172 277 NONE sbb_T1b_M0_SSVM
0xe9beee41d19d1df18d9dd63e46cb3639 0.864401059867603 278 NONE sbb_T1b_M0_SSVM
0xfbc8eb23a6ec1008a7c9d1ffebdf5f58 0.864317263602699 279 DEATH sbb_T1b_M0_SSVM
0xd112ebf7115150f9fef4fef8d491b40a 0.863300922274095 280 DEATH sbb_T1b_M0_SSVM
0xd12aa4465a4d66275552160183f389d3 0.863203530938066 281 NONE sbb_T1b_M0_SSVM
0xf82812ebdea85ea1aa475f6a802c819b 0.862475728520122 282 NONE sbb_T1b_M0_SSVM
0xcf55f54f88796ec3794c9ff00efb027b 0.861789389348655 283 PEG sbb_T1b_M0_SSVM
0xe2da7898817d9475a66b89d99b0a6e12 0.861048163683383 284 DEATH sbb_T1b_M0_SSVM
0xd3761335574bf2556048bb99f96c4012 0.860565479086811 285 NONE sbb_T1b_M0_SSVM
0xcfc44323cbf71cf449d6fd693663bc9b 0.860291808114071 286 NONE sbb_T1b_M0_SSVM
0xfdb6f07f84bc999d042f37dc3450856e 0.86026369155568 287 DEATH sbb_T1b_M0_SSVM
0xd5edb5ec1169f1a5c865ae83f0af14e8 0.859686695532106 288 NONE sbb_T1b_M0_SSVM
0xe561d548069a6f943e73d3242b6ad1e 0.859074771065537 289 PEG sbb_T1b_M0_SSVM
0xfd825cb486e59a2700e5da7ce967f6a4 0.858877624339266 290 NONE sbb_T1b_M0_SSVM
0xf2a2ce275115e111ae5a22ad3429026c 0.858710416293546 291 DEATH sbb_T1b_M0_SSVM
0xf09ebd675a83f3afcaaf4e64977c3b1a 0.858146129219 292 PEG sbb_T1b_M0_SSVM
0xfd045973a91ea294e06a6e4cfb4e2266 0.857147994094073 293 DEATH sbb_T1b_M0_SSVM
0xf216cafbe04caffbd7664cc23a2db83d 0.856989393461864 294 PEG sbb_T1b_M0_SSVM
0xe936c1effb682d71174c5873419f7029 0.856639748595463 295 NONE sbb_T1b_M0_SSVM
0xfd7f1867f3e74ffe8d920958df8e11e8 0.855811751207736 296 NONE sbb_T1b_M0_SSVM
0xcf1c0a3f75991383513ef134ef40d961 0.855581439481843 297 NONE sbb_T1b_M0_SSVM
0xfffd8c023601dac0ce9b21ab226b8a3d 0.8552001108864 298 DEATH sbb_T1b_M0_SSVM
0xdf43cfb79350350b0b0b4f4e9e8cc141 0.854764846239702 299 PEG sbb_T1b_M0_SSVM
0xef586cf6bff28e51a5fa24ecfd7ddf76 0.854484594076105 300 NONE sbb_T1b_M0_SSVM
0xe7bbea70b46ca3563c52cf93d7f77e6e 0.853255434443212 301 DEATH sbb_T1b_M0_SSVM
0xf97f3c95956730a68e1fe95cd9e451a2 0.852929471097846 302 NONE sbb_T1b_M0_SSVM
0xe6c9f4971f7d0be5178bcee41ec7ce40 0.851724118452715 303 NONE sbb_T1b_M0_SSVM
0xd31520068ec294753fb4be6f9fb8ae35 0.851020287469455 304 PEG sbb_T1b_M0_SSVM
0xd699c91c0883d77bc456636836f4757c 0.850539462345282 305 PEG sbb_T1b_M0_SSVM
0xec78b838a78beb8f98adeacf43c3d646 0.850116882791382 306 PEG sbb_T1b_M0_SSVM
0xe9e31c6c3df4f0fb15ebe7c24b555e85 0.849763568628963 307 PEG sbb_T1b_M0_SSVM
0xfbfc24fa1e8e50a389841a14774debee 0.849707673991336 308 PEG sbb_T1b_M0_SSVM
0xe68dc2738e74844599b493a91d2aaa1b 0.849655841170108 309 PEG sbb_T1b_M0_SSVM
0xf9bbabe811e269d8cf2be964e07594bc 0.848132136721881 310 DEATH sbb_T1b_M0_SSVM
0xf0f77e6f043c61c37cf0e7c3d0e3c754 0.848048926619653 311 NONE sbb_T1b_M0_SSVM
0xedaa4967a674ca7d995883be598a1a5c 0.847878145213451 312 PEG sbb_T1b_M0_SSVM
0xf2487b792a8cb59a0f5c7db06196110c 0.847011223022014 313 NONE sbb_T1b_M0_SSVM
0xd5f53f8c1c47ccaa895aaf51ced0e80a 0.846471585362417 314 PEG sbb_T1b_M0_SSVM
0xdd5e2c8f8a84304f9f8357bff5b5d42e 0.84548802997527 315 DEATH sbb_T1b_M0_SSVM
0xf0cce8b217b6cece44d7c415dcc41fb0 0.844879235001849 316 NONE sbb_T1b_M0_SSVM
0xe75b0b6e1f9037b4c31a1752618e81b5 0.843767861976213 317 DEATH sbb_T1b_M0_SSVM
0xdd0862a04c30e83bb0603190b7f66f4e 0.843265952259508 318 DEATH sbb_T1b_M0_SSVM
0xd5792dfdb345bdca74578a5dd7e9c0fc 0.84301390404463 319 NONE sbb_T1b_M0_SSVM
0xec56393484e50dc13f3e687c3537517d 0.842225921956058 320 DEATH sbb_T1b_M0_SSVM
0xd0f564004cb3a9534a60631b5599c236 0.842061717255328 321 PEG sbb_T1b_M0_SSVM
0xde517225b56631a6ed23488cfb0d4a54 0.841428802205719 322 NONE sbb_T1b_M0_SSVM
0xde0743f85184390d3bc39c19bf2ea2ae 0.841279416959394 323 PEG sbb_T1b_M0_SSVM
0xed10665bf8c36beb50f95ea6199c0017 0.841012829196039 324 PEG sbb_T1b_M0_SSVM
0xeb9c9a12516b2404f03664d4ff99a05 0.84043950782439 325 NONE sbb_T1b_M0_SSVM
0xebe2c7d10de4b1f1a07007d80a59fece 0.840093453540567 326 NONE sbb_T1b_M0_SSVM
0xf8dc68d9a1c5c169583ca3d4dfa5c214 0.839105851254796 327 DEATH sbb_T1b_M0_SSVM
0xf61e73ba8eb74ccfd07eee98cc7a8a55 0.838689771063764 328 NONE sbb_T1b_M0_SSVM
0xe9198c51686e6b6214bdb714eaf10a2e 0.838506575084879 329 NONE sbb_T1b_M0_SSVM
0xdb1d15b66373bf1bcac246947ff2a5c 0.838072007704198 330 PEG sbb_T1b_M0_SSVM
0xe531418980aaa61c0b078360aa71b72e 0.837956561761817 331 PEG sbb_T1b_M0_SSVM
0xd1fe1f605f01206d6536e16ae78773e4 0.837785277731149 332 PEG sbb_T1b_M0_SSVM
0xd27701d9404e65f294879671f8969a3a 0.837756312113827 333 PEG sbb_T1b_M0_SSVM
0xf018ff02e490ebf136e0462351c9995a 0.83655637024901 334 NONE sbb_T1b_M0_SSVM
0xf833a171c98fd18777becac7328377e5 0.835854136398485 335 PEG sbb_T1b_M0_SSVM
0xef8a3804eb6d65718f090a1fd1cb1cfb 0.834963237052918 336 PEG sbb_T1b_M0_SSVM
0xdb66fea36c893712201bde1649b162fe 0.833899651840047 337 PEG sbb_T1b_M0_SSVM
0xe60673d48d2ab455e24ddd8782f542 0.833717216775912 338 NONE sbb_T1b_M0_SSVM
0xdb6d154fab2869d12355606be2b1a0a5 0.832600293403212 339 DEATH sbb_T1b_M0_SSVM
0xe50e1671eae00837186f48081823f6a 0.831799735467133 340 DEATH sbb_T1b_M0_SSVM
0xde3661c7ed3dc0a21a37fc693b75b963 0.831701864083325 341 PEG sbb_T1b_M0_SSVM
0xe754c66fac138eda1909d340c552150f 0.830944929006801 342 DEATH sbb_T1b_M0_SSVM
0xe22e327df9138504c3ee7484a3f1dd9d 0.829480969614374 343 DEATH sbb_T1b_M0_SSVM
0xd4b363ca424fcb5495c55e256d228dcf 0.829084961455766 344 NONE sbb_T1b_M0_SSVM
0xd812ab30e47bb673fca4238f569e43fc 0.827550678873598 345 PEG sbb_T1b_M0_SSVM
0xf950685edb82c4ec4f7a08666017a011 0.827207214435162 346 NONE sbb_T1b_M0_SSVM
0xf4b4830578cde5e21fefe4f6af242ac7 0.825695667682813 347 NONE sbb_T1b_M0_SSVM
0xf6e75b250207b024bc7a27acf84e2ea1 0.824140922621952 348 NONE sbb_T1b_M0_SSVM
0xdea18430383df9271f5f954a1d7aa89f 0.822607450997778 349 NONE sbb_T1b_M0_SSVM
0xd027b421b5e34a676855471f7f017fe 0.820457677892478 350 PEG sbb_T1b_M0_SSVM
0xfe68d3eaaab39e7ec05260e9f6f3b594 0.819796610194783 351 PEG sbb_T1b_M0_SSVM
0xf8f2dec4be3bc8d3dc2a48831dd912be 0.819601807394138 352 PEG sbb_T1b_M0_SSVM
0xe9232b72bd6ea6c9e228c57744a7fc39 0.819049480075809 353 NONE sbb_T1b_M0_SSVM
0xf81866bdc8527ad3c31b8c3f120799a1 0.817566267960161 354 NONE sbb_T1b_M0_SSVM
0xe9eea3a099d373920d539f5c82a4a735 0.815474325130801 355 DEATH sbb_T1b_M0_SSVM
0xe3741364e8202994126d8ec536af456 0.81325406504296 356 PEG sbb_T1b_M0_SSVM
0xed67617d0fa4e6715aeb4bb060397e9a 0.81110373004238 357 NONE sbb_T1b_M0_SSVM
0xdc20584b36f70c4819c9b9e7ac9b2e25 0.8066908851454 358 NONE sbb_T1b_M0_SSVM
0xd382daa6df0dca40fa815237180121d8 0.806215515850523 359 NONE sbb_T1b_M0_SSVM
0xf842e0468ca5476e1ba6c4045602bff4 0.805068874078073 360 DEATH sbb_T1b_M0_SSVM
0xd54a2ea81d89a51632d04811cebeb8c3 0.804098059720747 361 NONE sbb_T1b_M0_SSVM
0xd1e37b682a43d315c4fd71ba43c0b8f9 0.803458670533577 362 PEG sbb_T1b_M0_SSVM
0xd73f9466b0c710dde7c345775f14b3be 0.802049493262134 363 NONE sbb_T1b_M0_SSVM
0xe8885be345a04b02b8a8086f9859e0ba 0.800941537076163 364 PEG sbb_T1b_M0_SSVM
0xe9552678c63ee3b6c313766e97753dbc 0.79927861483164 365 PEG sbb_T1b_M0_SSVM
0xe087e13516f034108a913abd7a34b28 0.797944435441165 366 PEG sbb_T1b_M0_SSVM
0xdca93142c5222da1fe22972387e81d8d 0.797645306706129 367 DEATH sbb_T1b_M0_SSVM
0xed99d8ce85b98ac336bfe40b81f2e926 0.796047883791213 368 PEG sbb_T1b_M0_SSVM
0xfca94c4f6ab5f79eaf0b7651c88e810b 0.79558144156916 369 NONE sbb_T1b_M0_SSVM
0xd19afb26224fd08b3397eda11712295c 0.79355209995796 370 DEATH sbb_T1b_M0_SSVM
0xfe27d56439d608304d62e96402d693ad 0.792995131196888 371 PEG sbb_T1b_M0_SSVM
0xee673c7ae2e5429e5e7d7bb8021c1f97 0.792721817612691 372 NONE sbb_T1b_M0_SSVM
0xee9c235ba68778d06fb84e7e709fa6e7 0.792663263694778 373 PEG sbb_T1b_M0_SSVM
0xff0634b3f2b17fafdea8696089231df 0.791993372259469 374 DEATH sbb_T1b_M0_SSVM
0xcefea2d935a9883363305f711db5fa4e 0.791708037912896 375 PEG sbb_T1b_M0_SSVM
0xe186efe19dcf7c7050a226f1d5f304ae 0.790915342886365 376 DEATH sbb_T1b_M0_SSVM
0xd49caf56339d1ef045ea7e03950039d4 0.790604477992358 377 PEG sbb_T1b_M0_SSVM
0xf5f92fa359184bb3bc4128daa09ad096 0.790355286402858 378 NONE sbb_T1b_M0_SSVM
0xf1857c0071ce51fa75db9c0ccd92b34a 0.7893989855454 379 NONE sbb_T1b_M0_SSVM
0xec30d4197a860e6d31f7a1336b256568 0.787775300133371 380 NONE sbb_T1b_M0_SSVM
0xd3eeae39e8592e4bc68736b593804ae0 0.78704602786519 381 PEG sbb_T1b_M0_SSVM
0xd581144148304667e66df70e8913f154 0.785967650454342 382 PEG sbb_T1b_M0_SSVM
0xde5560cc3800f3797a36528b728b9b6f 0.783782652402417 383 NONE sbb_T1b_M0_SSVM
0xf9520b99fe784fd0a89627834db4ac60 0.780263913542171 384 PEG sbb_T1b_M0_SSVM
0xec0916bb33028ec2d073de8f7d9b72c9 0.779193247563912 385 NONE sbb_T1b_M0_SSVM
0xd01e14bab20896317481dfeaf5a802b0 0.778391074062537 386 NONE sbb_T1b_M0_SSVM
0xe0b8838933d9689cf370722b5475b6b2 0.776778593685624 387 PEG sbb_T1b_M0_SSVM
0xfcaf34ef7b81ea5ab2a3ab42a06f57b8 0.773460011156421 388 NONE sbb_T1b_M0_SSVM
0xfed3fdca580330c527c11e25d1bfff5 0.771921662707813 389 NONE sbb_T1b_M0_SSVM
0xfcd62abf3423c170425d2a1c3c2eeb9 0.771067421839639 390 NONE sbb_T1b_M0_SSVM
0xf5895fdb58c6d5fe6a2717d546c14764 0.769790198092212 391 NONE sbb_T1b_M0_SSVM
0xe6aaabecc286c2da050879aacc52273 0.763432047461674 392 DEATH sbb_T1b_M0_SSVM
0xf467dbbc2c3f8b542b86b790c5b911a2 0.755638339089432 393 DEATH sbb_T1b_M0_SSVM
0xe725515e589333a0e47d8fecb13d0e19 0.751202519705768 394 DEATH sbb_T1b_M0_SSVM
0xfecb6f4ce1d71a01be44131645701abb 0.750738277923408 395 DEATH sbb_T1b_M0_SSVM
0xd36718c707a259c6cad88c5b0f12bef9 0.732985786648124 396 PEG sbb_T1b_M0_SSVM
0xed0929b7fd7230de56f15b1497383e77 0.731427182951482 397 PEG sbb_T1b_M0_SSVM
0xf22dbd73e845b2d27907e07de22d7c29 0.730848871966457 398 PEG sbb_T1b_M0_SSVM
0xe01aad010bf5a1a693431e2394b35293 0.729716335190571 399 PEG sbb_T1b_M0_SSVM
0xe5c549844deda60cee96d67026b28ca7 0.72769674988283 400 PEG sbb_T1b_M0_SSVM
0xf9a0baa40a5828cc4eb1e2c2e2381da2 0.72146797533083 401 PEG sbb_T1b_M0_SSVM
0xfdd6cfa13f857bca9b30dd309aa93b2d 0.71623303007068 402 NONE sbb_T1b_M0_SSVM
0xfc4fc92c9512e0a9fd0658b0ae42c093 0.712250487225484 403 NONE sbb_T1b_M0_SSVM
0xd6619d152577d2686281f82eeb8dd69d 0.711488487483037 404 PEG sbb_T1b_M0_SSVM
0xe427d2e116a2eb36221ba20ae7d44e4b 0.702991490850668 405 NONE sbb_T1b_M0_SSVM
0xfb9b007e9edd75c26a83395469cff112 0.691147350469208 406 PEG sbb_T1b_M0_SSVM
0xdea07ddceb79e747808204611ef914e6 0.677680044277776 407 NONE sbb_T1b_M0_SSVM
0xd066b9335c8265ae4ca035e11e6c53d5 0.67445036446516 408 DEATH sbb_T1b_M0_SSVM
0xe9b435a20f9284d389e1f4a19208016d 0.657718358615322 409 PEG sbb_T1b_M0_SSVM
0xdfd617655582234cf254aa4a1f8a54c2 0.64208322173667 410 NONE sbb_T1b_M0_SSVM
0xed9f6346883b01b782874a9e1eba5cf3 0.638662493749964 411 PEG sbb_T1b_M0_SSVM
0xcee0d011ee4d68ba5f89822601827575 0.63813765163576 412 PEG sbb_T1b_M0_SSVM
0xd5bd3c39db0ea9ec7fe864c579a8564a 0.637193035558997 413 NONE sbb_T1b_M0_SSVM
0xe47aab7184db16d2565593d71df14757 0.625545185851675 414 NONE sbb_T1b_M0_SSVM
0xe261d744e25db88b07b0a0702f5843a1 0.621380417972395 415 PEG sbb_T1b_M0_SSVM
0xdfb76e5655be6ec4c62c2cb98276aaa3 0.607196548529522 416 NONE sbb_T1b_M0_SSVM
0xea9b939a5421bff79ef3e8b003145a9a 0.605037539586032 417 NONE sbb_T1b_M0_SSVM
0xe47392b2331f8663812fe4c0b3a1c2b5 0.590453035169783 418 NONE sbb_T1b_M0_SSVM
0xd935049213ea4ab7213df4ba9d0011bc 0.586885836911907 419 NONE sbb_T1b_M0_SSVM
0xea8853b3ecfda6e662b26ae8814b3894 0.578626904177521 420 PEG sbb_T1b_M0_SSVM
0xf50bc52bad1fb3ab9d255d2b22ef09a1 0.519139826038741 421 PEG sbb_T1b_M0_SSVM
0xfa81a092708523789aa2411a4cc59db8 0.51749770185601 422 PEG sbb_T1b_M0_SSVM
0xe8be87187b3a234913efaecbfd380340 0.498968306728978 423 DEATH sbb_T1b_M0_SSVM
0xe6899e5673718dd10ace49ea67eb434b 0.441885034671673 424 PEG sbb_T1b_M0_SSVM
0xd6e36dc40dc7f14d135558b882a20e01 0.388097653998281 425 DEATH sbb_T1b_M0_SSVM
0xe059f63a710ae8a31beab3c6eb897775 0.381691405971609 426 NONE sbb_T1b_M0_SSVM
0xde976fcdacf209af454093bc0d008a50 0.334951059127425 427 PEG sbb_T1b_M0_SSVM
0xf3f59173eebadd3eae124f69cbb33cfa 0.309473014613661 428 DEATH sbb_T1b_M0_SSVM
0xd09c40ceeeb040913893df79e296559 0.135034985645765 429 NONE sbb_T1b_M0_SSVM
