team specificity_interval_6_12 specificity_interval_12_18 specificity_interval_18_24 specificity_interval_24_30 specificity_interval_30_36 specificity_interval_36 recall_interval_6_12 recall_interval_12_18 recall_interval_18_24 recall_interval_24_30 recall_interval_30_36 recall_interval_36 mean_distance_abs
sbb_T2a_M6_Cox 0.971774193548387 0.65979381443299 0.681208053691275 0.872611464968153 0.962962962962963 0.976470588235294 0.173469387755102 0.454545454545455 0.458333333333333 0.1875 0.0909090909090909 0.164835164835165 7.79617834394904
sbb_T2a_M6_SSVM 0.955645161290323 0.793814432989691 0.691275167785235 0.802547770700637 0.910493827160494 0.988235294117647 0.23469387755102 0.290909090909091 0.4375 0.28125 0.227272727272727 0.164835164835165 7.6624203821656
