team specificity_interval_6_12 specificity_interval_12_18 specificity_interval_18_24 specificity_interval_24_30 specificity_interval_30_36 specificity_interval_36 recall_interval_6_12 recall_interval_12_18 recall_interval_18_24 recall_interval_24_30 recall_interval_30_36 recall_interval_36 mean_distance_abs
sbb_T2c_M0_Cox 0.987562189054726 0.84375 0.727923627684964 0.816037735849057 0.898230088495575 0.876506024096386 0.0229885057471264 0.232876712328767 0.385714285714286 0.292307692307692 0.216216216216216 0.426751592356688 8.18705035971223
sbb_T2c_M0_SSVM 0.977611940298508 0.853365384615385 0.766109785202864 0.787735849056604 0.849557522123894 0.903614457831325 0.0804597701149425 0.164383561643836 0.328571428571429 0.323076923076923 0.216216216216216 0.382165605095541 8.11510791366906
