run_id CI95%L CI CI95%U censoring AUROC95%L AUROC AUROC95%U brier_score censoring AUROC95%L AUROC AUROC95%U brier_score censoring AUROC95%L AUROC AUROC95%U brier_score censoring AUROC95%L AUROC AUROC95%U brier_score censoring AUROC95%L AUROC AUROC95%U brier_score censoring AUROC95%L AUROC AUROC95%U brier_score censoring AUROC95%L AUROC AUROC95%U brier_score
sbb_T1c_M0_Cox 0.657724644187286 0.685156118616514 0.712587593045743 12 0.703179134314872 0.760386379789365 0.817593625263858 0.814768157004446 18 0.696056329295354 0.743119740297335 0.790183151299316 0.667347674680504 24 0.709489310970497 0.753193498222749 0.796897685475 0.5253580803131 30 0.705080257353245 0.749731728816158 0.79438320027907 0.398184701286148 36 0.70015109817968 0.747564010629772 0.794976923079863 0.32219953932934 48 0.731361962570168 0.783449550032779 0.83553713749539 0.190005574975151 60 0.730594963327084 0.789124668435013 0.847654373542942 0.140039256136364
sbb_T1c_M0_SSVM 0.658306370944214 0.685585888596147 0.71286540624808 12 0.731198309088998 0.784971247657815 0.838744186226632 0.594330045064853 18 0.702456439786098 0.74891962864173 0.795382817497363 0.479912528943417 24 0.707643948989376 0.751462529620853 0.79528111025233 0.375299513996662 30 0.706462140852671 0.751159314758748 0.795856488664824 0.282388178362515 36 0.704305846507106 0.751297085249083 0.798288323991059 0.229685936279377 48 0.728530836630108 0.781661600810537 0.834792364990966 0.138522873134991 60 0.72622755724908 0.785449033724896 0.844670510200711 0.107587593673101
