run_id CI95%L CI CI95%U censoring AUROC95%L AUROC AUROC95%U brier_score censoring AUROC95%L AUROC AUROC95%U brier_score censoring AUROC95%L AUROC AUROC95%U brier_score censoring AUROC95%L AUROC AUROC95%U brier_score censoring AUROC95%L AUROC AUROC95%U brier_score censoring AUROC95%L AUROC AUROC95%U brier_score censoring AUROC95%L AUROC AUROC95%U brier_score
sbb_T1b_M6_RSF 0.689641772145962 0.715861401705267 0.742081031264572 12 0.731554578460189 0.781994047619048 0.832433516777906 0.701958961471651 18 0.758133838922499 0.800803448951597 0.843473058980695 0.517935547654812 24 0.742457686081913 0.786648961854177 0.830840237626441 0.390063322603456 30 0.764654160532053 0.809647415098421 0.854640669664789 0.278235687736104 36 0.765551268289159 0.813278886872353 0.861006505455548 0.229107041610116 48 0.770746019676453 0.823299553418069 0.875853087159686 0.142689890897081 60 0.754131432230533 0.813192961041603 0.872254489852673 0.117608978768359
sbb_T1b_M6_SSVM 0.680043773862543 0.708096994618129 0.736150215373715 12 0.723615760706332 0.779241071428571 0.834866382150811 0.599808643232496 18 0.740014610877702 0.785150891632373 0.830287172387044 0.439195422068655 24 0.743152398122326 0.786528247223563 0.829904096324801 0.328385425883184 30 0.742241168682291 0.787908284663638 0.833575400644985 0.235594085529713 36 0.739702205594431 0.788294010889292 0.836885816184153 0.194356882794314 48 0.751783158758027 0.80668155273102 0.861579946704013 0.122963576560807 60 0.736815651814652 0.797375648458956 0.857935645103261 0.104078791759021
