0xe1243501dccecd29c201b7a93e1c3785 6-12 PEG sbb_T2b_M0_SSVM
0xfb403b2eeb639d2539f1cb7e3a3bfa49 6-12 PEG sbb_T2b_M0_SSVM
0xd3ee37821226aa86382711f993370ef8 6-12 NONE sbb_T2b_M0_SSVM
0xf06146e45ec0cc14307c87efa6207d46 6-12 NONE sbb_T2b_M0_SSVM
0xf302dc063ff300d32a6ee2efab28b92d 6-12 NONE sbb_T2b_M0_SSVM
0xd7d862d8832214c47e56f7bf814a80ab 6-12 PEG sbb_T2b_M0_SSVM
0xfbdb5a662aec0ca496557ec37f20d219 6-12 NONE sbb_T2b_M0_SSVM
0xf529bd25b4480431bfbba5d6f2e28a74 6-12 PEG sbb_T2b_M0_SSVM
0xd53604e8a14246f6ac13809f369bc9fe 6-12 PEG sbb_T2b_M0_SSVM
0xdd9bf04b864ca70e3747743c75fd5d15 6-12 NONE sbb_T2b_M0_SSVM
0xee8bfccacb125b541b17fdc2464757cc 6-12 NONE sbb_T2b_M0_SSVM
0xf688e66f6457a8d658ff91c39e74fded 6-12 NONE sbb_T2b_M0_SSVM
0xcf9644601c67a22a9c27ccfa1abdedf1 6-12 NONE sbb_T2b_M0_SSVM
0xea6e9e8593e17577e3160c2a1946d1f6 6-12 NONE sbb_T2b_M0_SSVM
0xeab860b4b293424189f429e7d089d61a 6-12 PEG sbb_T2b_M0_SSVM
0xf69395f0e9f8d7696c20d803a23345bd 6-12 NONE sbb_T2b_M0_SSVM
0xf7364a4981e0237889814677a80f28c7 6-12 PEG sbb_T2b_M0_SSVM
0xd1096bee9a6c72e45237d987dc77672f 6-12 DEATH sbb_T2b_M0_SSVM
0xfd82b366738c82f8a704f1cac062c88b 6-12 DEATH sbb_T2b_M0_SSVM
0xee954eee6763a75b49356fd60400df96 6-12 NONE sbb_T2b_M0_SSVM
0xe1861d1a19780afbf6e583e164e31737 6-12 PEG sbb_T2b_M0_SSVM
0xf71142822940f1367d768de7f2c82c00 6-12 NONE sbb_T2b_M0_SSVM
0xd091879593136949b2a475202c5e04fa 6-12 PEG sbb_T2b_M0_SSVM
0xd2a42221873cdea520585a5d5c88969f 6-12 NONE sbb_T2b_M0_SSVM
0xe3fe42b609b1deda32fdd589e8bc3f4d 6-12 NONE sbb_T2b_M0_SSVM
0xd31b65ca63d9b4aa65f7c18ab924189a 6-12 PEG sbb_T2b_M0_SSVM
0xdfd6ff34ba7f6abb38fa7ae9894d4d06 6-12 NONE sbb_T2b_M0_SSVM
0xf3db66d99e46915816ef68277c518c7b 6-12 DEATH sbb_T2b_M0_SSVM
0xf26833e0957ae6825fc358ac4201c535 12-18 NONE sbb_T2b_M0_SSVM
0xfa239063a630e9e5929acf1f91f9a3da 12-18 PEG sbb_T2b_M0_SSVM
0xfd2e06a25a21d1558c6bd8fdfa1d5b6f 12-18 PEG sbb_T2b_M0_SSVM
0xcf9844d5d100e482d188e39e0031c174 12-18 PEG sbb_T2b_M0_SSVM
0xeae8c46d82b48cc87efccde5a796cc0 12-18 DEATH sbb_T2b_M0_SSVM
0xe0020cb9777c4cfa55a538a0b30bb4fb 12-18 NONE sbb_T2b_M0_SSVM
0xd0e71a1c656557fd7856d9e3c6b15faf 12-18 PEG sbb_T2b_M0_SSVM
0xedbd9bc377e62cb50bf2d3357144ea5c 12-18 NONE sbb_T2b_M0_SSVM
0xe95317d9ab2f9930a73d4bbc86c4c13a 12-18 NONE sbb_T2b_M0_SSVM
0xe1911c880481ae1c7ceea1c15ee76b7a 12-18 PEG sbb_T2b_M0_SSVM
0xda3cd952705fe75d00d50ca811b8db7 12-18 DEATH sbb_T2b_M0_SSVM
0xd707b3b19e95bb3390bbca43a3c84861 12-18 PEG sbb_T2b_M0_SSVM
0xfd0b34dab06d3ffbac27187fdf686edb 12-18 PEG sbb_T2b_M0_SSVM
0xd6f42694625c79b8219804527461c42 12-18 NONE sbb_T2b_M0_SSVM
0xffb2d295bf7d88afcf7738b39ff9503d 12-18 DEATH sbb_T2b_M0_SSVM
0xf8989307a3cc4e26889fd3e10f022ed5 12-18 DEATH sbb_T2b_M0_SSVM
0xf4fa7bd79c7b95cb9e90f1e80687dc56 12-18 NONE sbb_T2b_M0_SSVM
0xe611e0187ce0a2383d06e8b7c4bdd82d 12-18 NONE sbb_T2b_M0_SSVM
0xe9fba3e3fd2846481470a98032acd466 12-18 DEATH sbb_T2b_M0_SSVM
0xd0b78902dae8914c1fd91189043a86fa 12-18 PEG sbb_T2b_M0_SSVM
0xd9322524393a875d28f0c966d84d8293 12-18 NONE sbb_T2b_M0_SSVM
0xfa1fc7c435f2de6bdb7ed4fc644e5aa6 12-18 PEG sbb_T2b_M0_SSVM
0xf6bc8bd3fbd838638e0f8515ec26c07a 12-18 NONE sbb_T2b_M0_SSVM
0xfe669ba1f416c40fe313e7c67b2acf26 12-18 PEG sbb_T2b_M0_SSVM
0xd83e16c58a38a6710258d51ef5e55c2b 12-18 DEATH sbb_T2b_M0_SSVM
0xf8755572377a8aec60f0daf413ccbb4b 12-18 PEG sbb_T2b_M0_SSVM
0xf34134b9e4d84f0747e1b671e7ffc77f 12-18 NONE sbb_T2b_M0_SSVM
0xfa14498bd96bd8a6aa15cf75f9a3fb85 12-18 NONE sbb_T2b_M0_SSVM
0xd987b922e81f9eaeebb9a09c2bfa0e30 12-18 DEATH sbb_T2b_M0_SSVM
0xe09643fdfa382af3b615067ba53e3ec9 12-18 PEG sbb_T2b_M0_SSVM
0xd11d7c25b92a35bb6263f1862fc4ce50 12-18 PEG sbb_T2b_M0_SSVM
0xe13591723f3dd735ab755d1c7b9b7299 12-18 PEG sbb_T2b_M0_SSVM
0xd5426d42d32f8b8fde9d9c98d48db81f 12-18 DEATH sbb_T2b_M0_SSVM
0xf82230e4bcd875a07dc1bf0771cee5a2 12-18 NONE sbb_T2b_M0_SSVM
0xea31d04befc74fc9e2fcd95610257670 12-18 PEG sbb_T2b_M0_SSVM
0xea09e79af31bf049776f88fb4dd6cfe2 12-18 PEG sbb_T2b_M0_SSVM
0xeceb727a34f8dde7f27bbdcc70559e3c 12-18 NONE sbb_T2b_M0_SSVM
0xe34b5e762bb7ce57ec0aa9eda499b7d7 12-18 NONE sbb_T2b_M0_SSVM
0xf9cf1b69a3cac1563c0cb355d7df83c7 12-18 PEG sbb_T2b_M0_SSVM
0xd47e5fd14b1f26a916ed2808c6cb0dc2 12-18 NONE sbb_T2b_M0_SSVM
0xfd7364d0c76517b4939aed94bf9558d 12-18 DEATH sbb_T2b_M0_SSVM
0xf44f6c6ed032569f224aca85ed0cbfec 12-18 DEATH sbb_T2b_M0_SSVM
0xf1c610f643e2254e1e6bcd9f9fbb788f 12-18 DEATH sbb_T2b_M0_SSVM
0xd5043ae62b88bbb0e6f5fde21a8a65a2 12-18 NONE sbb_T2b_M0_SSVM
0xff800da9a7a2fc4a01db45e4e8bb9b63 12-18 NONE sbb_T2b_M0_SSVM
0xf7bf2541be8877afdf8a7b3b3438fc52 12-18 DEATH sbb_T2b_M0_SSVM
0xeb41451dd6d05415b2e95bec7d70425c 12-18 DEATH sbb_T2b_M0_SSVM
0xd1c7d3ccbb99ca71b975d1e0ec5b8f1a 12-18 NONE sbb_T2b_M0_SSVM
0xd56863a27c027e278d4ff20e932056e3 12-18 PEG sbb_T2b_M0_SSVM
0xe68286b6e6394818e23e42eeebb6b5e2 12-18 DEATH sbb_T2b_M0_SSVM
0xdf77d399fe527cf039cdaf28269c5aa5 12-18 NONE sbb_T2b_M0_SSVM
0xef2d65a03b94ad521ce01a01902cddbc 12-18 PEG sbb_T2b_M0_SSVM
0xd5638c7f81b87b1b60eb380abb81ba6b 12-18 NONE sbb_T2b_M0_SSVM
0xe1f9255fd859bedca208a17db00b5737 12-18 PEG sbb_T2b_M0_SSVM
0xf213112adb4999d5a440d900a689fb5b 12-18 PEG sbb_T2b_M0_SSVM
0xe71b3e912d71806b02f8dc57534c7e5c 12-18 NONE sbb_T2b_M0_SSVM
0xd9ce87a4ce5b4b7068a7718a2b6d70a8 12-18 PEG sbb_T2b_M0_SSVM
0xefdf46113860766941eca0395f5f5a78 12-18 PEG sbb_T2b_M0_SSVM
0xfadd704d172ee3faaca14a6aecebe5db 12-18 NONE sbb_T2b_M0_SSVM
0xd7321cbd985268c4141bcc4485f73e54 12-18 PEG sbb_T2b_M0_SSVM
0xff0dc46026c4c7377acc0612dd14888d 12-18 NONE sbb_T2b_M0_SSVM
0xd317b8d1717b6cde303ef3732e3cfb71 12-18 DEATH sbb_T2b_M0_SSVM
0xd41a3ee089ce64b7aab7b3f5ff2b08a6 12-18 PEG sbb_T2b_M0_SSVM
0xf280278b67e8710e087249dad21da735 12-18 PEG sbb_T2b_M0_SSVM
0xe03eb5db3bd06ad4f2e316136029276e 12-18 PEG sbb_T2b_M0_SSVM
0xfb08439610a68a0e85a6eb06d412e34c 12-18 PEG sbb_T2b_M0_SSVM
0xdc44a5f974cd0e0be3a4afa4e5934e17 12-18 NONE sbb_T2b_M0_SSVM
0xd790f990b440716f8ddbd961e5881a42 12-18 NONE sbb_T2b_M0_SSVM
0xe5a7736524fb5fcf98c1aef549cab227 12-18 PEG sbb_T2b_M0_SSVM
0xcf467518a0b8918ab7df44c6f51d1235 12-18 DEATH sbb_T2b_M0_SSVM
0xd1f3a8b31288234dcb941265851400ba 12-18 DEATH sbb_T2b_M0_SSVM
0xe87724de950aa61be595c8805ea7baeb 12-18 NONE sbb_T2b_M0_SSVM
0xff2a4d24028b93bb9f199542657cafce 12-18 PEG sbb_T2b_M0_SSVM
0xdab7039de7c92f9467307883d56c0151 12-18 DEATH sbb_T2b_M0_SSVM
0xf94bb7a20ca8cb7706f518420785d5e0 12-18 DEATH sbb_T2b_M0_SSVM
0xec1b1fb1dcc7b585296d94f07743df75 12-18 PEG sbb_T2b_M0_SSVM
0xfbac1c67b95ce1057128c431a2cdee75 12-18 DEATH sbb_T2b_M0_SSVM
0xec4bcb0a1930afa5232d2f6dc86b9177 12-18 PEG sbb_T2b_M0_SSVM
0xfdeac27ee0e72aca88b427bb87909368 12-18 PEG sbb_T2b_M0_SSVM
0xfe0a4f8776ac746a638672323b26970f 12-18 DEATH sbb_T2b_M0_SSVM
0xf188774bc59c58292edda7342dde3a3a 12-18 PEG sbb_T2b_M0_SSVM
0xe4fdcdd2a4c1d58debdf622a8b7c786 18-24 PEG sbb_T2b_M0_SSVM
0xd4ea23e326cd8074d2a8e19560589a3f 18-24 DEATH sbb_T2b_M0_SSVM
0xea0eff4909b5dd55afbef60ffb4e3101 18-24 PEG sbb_T2b_M0_SSVM
0xdebc17bef1084afcb99a1e691bc29ae 18-24 NONE sbb_T2b_M0_SSVM
0xcea28218baea20cfc121f8055282113f 18-24 PEG sbb_T2b_M0_SSVM
0xe05df002506b4e86e045cc51a915e10 18-24 PEG sbb_T2b_M0_SSVM
0xf4223f279969356614e148096f0ff626 18-24 PEG sbb_T2b_M0_SSVM
0xfd6f2c6acb64a6e8b22b761c7058f8b1 18-24 NONE sbb_T2b_M0_SSVM
0xf710c42ea82b240dd90161a9fef83287 18-24 PEG sbb_T2b_M0_SSVM
0xebb8cde3b65772cb963be4146bf426e5 18-24 DEATH sbb_T2b_M0_SSVM
0xd7bf8d698833b47c11ab207cc04b89c9 18-24 NONE sbb_T2b_M0_SSVM
0xd5c337472199810ecb872821d9788346 18-24 NONE sbb_T2b_M0_SSVM
0xdc103e9d0b714bbf9039509839a33d58 18-24 DEATH sbb_T2b_M0_SSVM
0xfdc48e7bc026e1057eac3f2461cdccdc 18-24 NONE sbb_T2b_M0_SSVM
0xd918b145d162d1179dd34d36f51be722 18-24 PEG sbb_T2b_M0_SSVM
0xe922d2f4df2427f8372559c67f9558ff 18-24 DEATH sbb_T2b_M0_SSVM
0xdb5dc80f29a179038e60bbffd2c97e64 18-24 DEATH sbb_T2b_M0_SSVM
0xe28164b3703a515d07431e9a0cd7e326 18-24 NONE sbb_T2b_M0_SSVM
0xeb98c8fbd6d496d367e7e63250ff829 18-24 PEG sbb_T2b_M0_SSVM
0xf10d4ea92d3f8bd97a8e97335420ec9d 18-24 NONE sbb_T2b_M0_SSVM
0xfd2274eb15b71024039d32eb1edefe55 18-24 NONE sbb_T2b_M0_SSVM
0xf3f096ee783aa5fd0723a87fb8bc12be 18-24 PEG sbb_T2b_M0_SSVM
0xd417279bb6053beedd7777f2c6f35582 18-24 PEG sbb_T2b_M0_SSVM
0xd675843b3b012885484e0637ea0333f8 18-24 DEATH sbb_T2b_M0_SSVM
0xeea35f2d789b18b2869b6be01a6d016b 18-24 NONE sbb_T2b_M0_SSVM
0xf25577a5c837f2571b84329ad66e0141 18-24 NONE sbb_T2b_M0_SSVM
0xed33bc879bc2074ac2e72632e9505f81 18-24 NONE sbb_T2b_M0_SSVM
0xf4f2553c05bed4c3641960d1326ae10b 18-24 DEATH sbb_T2b_M0_SSVM
0xffea07026ee4819bc346649ddad2d740 18-24 NONE sbb_T2b_M0_SSVM
0xdab5b4c5bf823ca40ccf04b019db8012 18-24 NONE sbb_T2b_M0_SSVM
0xf78ead80e7859b6ad13d1a038a7db8f8 18-24 NONE sbb_T2b_M0_SSVM
0xced4fcea0fec8a743c479bce1bce3ca6 18-24 NONE sbb_T2b_M0_SSVM
0xd26d82e70be8a467872b4b23cd851c3a 18-24 NONE sbb_T2b_M0_SSVM
0xe52cf316e1e3097536676407e4e031a0 18-24 NONE sbb_T2b_M0_SSVM
0xd97fec54dc54fa1b60a32665993d16c4 18-24 PEG sbb_T2b_M0_SSVM
0xd99207a82b9ebf093a36d905b4104fb5 18-24 NONE sbb_T2b_M0_SSVM
0xd7b06c10449c68e86de95bec01aab1ff 18-24 DEATH sbb_T2b_M0_SSVM
0xfbc694fefaa0cd13396b8dc271863e35 18-24 PEG sbb_T2b_M0_SSVM
0xf9a50982020767a3819aef62ef7cf85a 18-24 NONE sbb_T2b_M0_SSVM
0xe7a85df03166d972a57667b88a86f8c 18-24 NONE sbb_T2b_M0_SSVM
0xf5b897d01df647df2ae8611b87206c69 18-24 NONE sbb_T2b_M0_SSVM
0xfb6b11f879e8c94bc40e422f9219b39a 18-24 PEG sbb_T2b_M0_SSVM
0xd73350f7d616cb803f96f4f17678fd8f 18-24 PEG sbb_T2b_M0_SSVM
0xfd393a5687cc418359d4af8ce52fb04 18-24 NONE sbb_T2b_M0_SSVM
0xec869599b2d2828d526ab101d0aca22 18-24 NONE sbb_T2b_M0_SSVM
0xdc56995bc7b7f90c80986aabdbc5ada1 18-24 DEATH sbb_T2b_M0_SSVM
0xd244a1f9c20c3f18776c0091e4a2f1 18-24 PEG sbb_T2b_M0_SSVM
0xd60c2abd7d42886e8a351fe84fa94a4 18-24 NONE sbb_T2b_M0_SSVM
0xe75da17b210d09562c2494dbe0146b54 18-24 PEG sbb_T2b_M0_SSVM
0xfa9882c168e02e5b6a87757e6b6b9b22 18-24 NONE sbb_T2b_M0_SSVM
0xf85acc7de3bbd88ce48d27e53a99e9e0 18-24 PEG sbb_T2b_M0_SSVM
0xe03c0e77caeee1175d806396ea7f394f 18-24 NONE sbb_T2b_M0_SSVM
0xda6be9a63492d9182cb0e1ba803a99f3 18-24 PEG sbb_T2b_M0_SSVM
0xd3690d7f264d59ee3b2ebc6169757913 18-24 NONE sbb_T2b_M0_SSVM
0xf48e752b802c35028d8fb7308b1e948b 18-24 PEG sbb_T2b_M0_SSVM
0xf4ad456ae4633925638b9d86775112eb 18-24 PEG sbb_T2b_M0_SSVM
0xeb7bf54305340d3d8e4f280abeb7473 18-24 NONE sbb_T2b_M0_SSVM
0xeca63b2021a883ab075f46cf5d0c0c4c 18-24 PEG sbb_T2b_M0_SSVM
0xfd1b9d000bab595412ab90d849c98927 18-24 PEG sbb_T2b_M0_SSVM
0xd39cb0c000c1454b265e9d35eff7b351 18-24 PEG sbb_T2b_M0_SSVM
0xfa54e05f1e04e2ed49738336f4c3a84f 18-24 PEG sbb_T2b_M0_SSVM
0xf2e4385cd98a2ef4b84b251b38f66b36 18-24 NONE sbb_T2b_M0_SSVM
0xd5eb540595f0135ed7b2c9c3d36f4940 18-24 PEG sbb_T2b_M0_SSVM
0xf53b3ecfaf3cf0310b8679cb9332c1d 18-24 PEG sbb_T2b_M0_SSVM
0xe2459ee8b4c7c07a0c3186049b3e1d43 18-24 NONE sbb_T2b_M0_SSVM
0xd333c66f71dcbce577612ecbfdaac2a8 18-24 DEATH sbb_T2b_M0_SSVM
0xeac9347ec35cb5dc7bb8c79a03b92c33 18-24 DEATH sbb_T2b_M0_SSVM
0xda807cd4f873161d3d7e48c2af27764c 18-24 NONE sbb_T2b_M0_SSVM
0xd27138ac1133341363af73b557e744f5 18-24 NONE sbb_T2b_M0_SSVM
0xd2117522df5b7e50c1495e661a655df1 18-24 PEG sbb_T2b_M0_SSVM
0xdab201c23fc655b741604ffff04fb576 18-24 DEATH sbb_T2b_M0_SSVM
0xd32d8b8316d08d4c934e0db5b4cbbbab 18-24 NONE sbb_T2b_M0_SSVM
0xfd1d5c688d32c592344c0b477526d572 18-24 PEG sbb_T2b_M0_SSVM
0xf9079405694f19b4849f68c05e06e474 18-24 NONE sbb_T2b_M0_SSVM
0xfecb8afae7771e7ae7d8df54b515c382 18-24 NONE sbb_T2b_M0_SSVM
0xff276b491e7bb2978e2c140930ef3fce 18-24 NONE sbb_T2b_M0_SSVM
0xfd70e2ffdac9d7227f1870f3b2e11fa6 18-24 PEG sbb_T2b_M0_SSVM
0xe7414527e960338f49cb82d3cd44bf58 18-24 NONE sbb_T2b_M0_SSVM
0xdb5f9c198ddfc05cebd57e05ce1f65b0 18-24 DEATH sbb_T2b_M0_SSVM
0xfc75a58392a25eac28f8eabd1693466b 18-24 PEG sbb_T2b_M0_SSVM
0xe1b521e5c1ba0a32f7c946d8e6e45785 18-24 NONE sbb_T2b_M0_SSVM
0xef1713560b9daaa3e34cb59dd8037f2f 18-24 DEATH sbb_T2b_M0_SSVM
0xf7800c3c145eb89a00eec9394dbf9aa0 18-24 NONE sbb_T2b_M0_SSVM
0xeecc0a28a6ea86c50224dcb2530f4706 18-24 PEG sbb_T2b_M0_SSVM
0xf1a0c725e956c72ee92590d8dcfefb58 18-24 NONE sbb_T2b_M0_SSVM
0xd5ffba53ba5ea58fbb117bc716014e12 18-24 NONE sbb_T2b_M0_SSVM
0xd6ceb97d4ad0065684a61fa954b61398 18-24 PEG sbb_T2b_M0_SSVM
0xe5503eff502e4079eeb7b70a8e81624f 18-24 DEATH sbb_T2b_M0_SSVM
0xdddf585b28242c749d927d5be4bc1301 18-24 NONE sbb_T2b_M0_SSVM
0xda5c46fe14bcc02dd330b6f33d4d2b69 18-24 NONE sbb_T2b_M0_SSVM
0xd6863d328e70d290894ca386305b1b0a 18-24 NONE sbb_T2b_M0_SSVM
0xd947420e9d8d72f2cc88d9aa94d716de 18-24 NONE sbb_T2b_M0_SSVM
0xd9f5dd90d4a81a83ecea564806ce241b 18-24 PEG sbb_T2b_M0_SSVM
0xe279e335141f1938c4902e0542794860 18-24 NONE sbb_T2b_M0_SSVM
0xf648b61ecd9ef2453a2e443d2ba184b3 18-24 PEG sbb_T2b_M0_SSVM
0xf38fdc686f3ccffbeb4d8cf31d935f5d 18-24 NONE sbb_T2b_M0_SSVM
0xf37c5fe1faef6a4d71371899ffeb72a8 18-24 NONE sbb_T2b_M0_SSVM
0xf45f2136fc41ad2a85fd11aa40df27c5 18-24 PEG sbb_T2b_M0_SSVM
0xdcf3911b063dd9046757764fce68259d 18-24 DEATH sbb_T2b_M0_SSVM
0xd5ec6e9cb0c8457b75773d5c896c97e2 18-24 NONE sbb_T2b_M0_SSVM
0xfe575fd2cf4dc619ebd32287145eea83 18-24 NONE sbb_T2b_M0_SSVM
0xe24abba1dbd4bf308cc5c3edd30f3aaf 18-24 PEG sbb_T2b_M0_SSVM
0xdd97a1c26fa0eb26748f253bbd060287 18-24 NONE sbb_T2b_M0_SSVM
0xd7717aa6288c4cf6ffab22bf25544fd7 18-24 NONE sbb_T2b_M0_SSVM
0xda04f2d9de35c2c9ede44c4d0b936626 18-24 NONE sbb_T2b_M0_SSVM
0xd74b09cba6eae315293ad458e6bcc9f2 18-24 DEATH sbb_T2b_M0_SSVM
0xd3b7c5fb0c510b91174df4e6ba01f066 18-24 NONE sbb_T2b_M0_SSVM
0xec8f4f8e33c61d083b87631e1fc49471 18-24 NONE sbb_T2b_M0_SSVM
0xe98b50fd5e1b71343db2db67b7e4b499 18-24 PEG sbb_T2b_M0_SSVM
0xea7bc1be9d79fce7043d34eee9eb3fb 18-24 NONE sbb_T2b_M0_SSVM
0xfd6cee8f40454120ee09c9fed24bcee1 18-24 NONE sbb_T2b_M0_SSVM
0xe18c99ff5b5c6cab7d196a80b58cac43 18-24 PEG sbb_T2b_M0_SSVM
0xf0d0a2f0ca020f23ae90fd5ff6dd2c8e 18-24 NONE sbb_T2b_M0_SSVM
0xeeaef2090e6697ea49cd4754c1e7fc52 18-24 NONE sbb_T2b_M0_SSVM
0xf99cf8d8fb1425bd6599947341f2c0a3 18-24 NONE sbb_T2b_M0_SSVM
0xec63a43004d49655727a77cf1907da9b 18-24 NONE sbb_T2b_M0_SSVM
0xd0c0c32aac515e84075e95bc5cf59b0f 18-24 NONE sbb_T2b_M0_SSVM
0xd36c161f1116c89d7b96cd22a3c72459 24-30 DEATH sbb_T2b_M0_SSVM
0xdf69e78176d39a97097368c5a5ab0aba 24-30 PEG sbb_T2b_M0_SSVM
0xd4d10cf490061439735b63ce33997c14 24-30 PEG sbb_T2b_M0_SSVM
0xf7e5cdefcee841d2b6cc6c1e60f488a1 24-30 PEG sbb_T2b_M0_SSVM
0xf09904ece3ec254d120d8e20d2a9b8d4 24-30 PEG sbb_T2b_M0_SSVM
0xdc95cdc9b3e1d6708a767449fa13ae6e 24-30 NONE sbb_T2b_M0_SSVM
0xe5144e8e0dc88e7e42acc50fa0a3bd5e 24-30 PEG sbb_T2b_M0_SSVM
0xe3571e398dc254de7638a7937035be70 24-30 NONE sbb_T2b_M0_SSVM
0xff9195ae018b73c7b70024c9dbf7c8d8 24-30 NONE sbb_T2b_M0_SSVM
0xd944807f0027bf43b7786e4bd9b8e9ef 24-30 DEATH sbb_T2b_M0_SSVM
0xde3ebb711c6d4dd2fc6aaed819e56904 24-30 DEATH sbb_T2b_M0_SSVM
0xff7def9ae79d9c965bf2ab55a63ab030 24-30 PEG sbb_T2b_M0_SSVM
0xfb313a896f03bab8c319262f69eb0cc 24-30 PEG sbb_T2b_M0_SSVM
0xfb6b88603cbfdcdccde6955a98e1f80f 24-30 PEG sbb_T2b_M0_SSVM
0xeaed8517edbbb934b65bb5ada72c4326 24-30 NONE sbb_T2b_M0_SSVM
0xefbd105005fbd4c913e67f1e04cea00b 24-30 DEATH sbb_T2b_M0_SSVM
0xf766abd56d68ad3f98a669e428314623 24-30 DEATH sbb_T2b_M0_SSVM
0xd5b544c682f3ff066e5c84bbb8ad6b79 24-30 NONE sbb_T2b_M0_SSVM
0xdf89ee61d738c89777ac8917091d7b5f 24-30 NONE sbb_T2b_M0_SSVM
0xd756384a94be6177659d1c36c1096aa4 24-30 PEG sbb_T2b_M0_SSVM
0xd08ed43907ef30124fcdce84155aecff 24-30 NONE sbb_T2b_M0_SSVM
0xf44e148c018f050d4bb41962d37da746 24-30 NONE sbb_T2b_M0_SSVM
0xfb8d03bebaba360a9a6086d80513029a 24-30 DEATH sbb_T2b_M0_SSVM
0xdeb42eb3e20ddcab47803195d2e8dd9 24-30 NONE sbb_T2b_M0_SSVM
0xef030f43e22e752a9a0e914582eaa50e 24-30 PEG sbb_T2b_M0_SSVM
0xdaac19ce7fb25ca7da5241ef8e13a995 24-30 NONE sbb_T2b_M0_SSVM
0xfaf00e55746069b29728118912287df5 24-30 PEG sbb_T2b_M0_SSVM
0xe2bcb1edb8f34ed00792515d9e8f45a4 24-30 NONE sbb_T2b_M0_SSVM
0xe7e58da752f329f4c502a1e99da9163e 24-30 PEG sbb_T2b_M0_SSVM
0xf739a7606c240c989e91c7f80684264d 24-30 DEATH sbb_T2b_M0_SSVM
0xf27bededb6f7fb7d23de734413cc8da2 24-30 DEATH sbb_T2b_M0_SSVM
0xea6ee484c00cfac85c2b41b32ec3945b 24-30 DEATH sbb_T2b_M0_SSVM
0xde16308d1d1aa5d87038aa16043406e7 24-30 NONE sbb_T2b_M0_SSVM
0xf2d107e07b799de2b3691edc490fcdee 24-30 NONE sbb_T2b_M0_SSVM
0xd718fbf5e5448b16ffb18ccaf30f844a 24-30 DEATH sbb_T2b_M0_SSVM
0xe97dee51285e88b33b4c0761066df1e 24-30 NONE sbb_T2b_M0_SSVM
0xe131e2e69ff731d99b83a026c9fe5580 24-30 NONE sbb_T2b_M0_SSVM
0xf8240b7302429c49504a9230ce6a5428 24-30 NONE sbb_T2b_M0_SSVM
0xffa9b0a3542580ba135d03f977b3e739 24-30 NONE sbb_T2b_M0_SSVM
0xe9a50e135fe75c3fddfdc1abfc798b17 24-30 DEATH sbb_T2b_M0_SSVM
0xee3f8a31ebc825766c6f42a32f3d806a 24-30 NONE sbb_T2b_M0_SSVM
0xf00d4ed29db7deec9288516fdb87da9c 24-30 NONE sbb_T2b_M0_SSVM
0xe011d3b8d1d2afa89a4f3ad809e82f61 24-30 PEG sbb_T2b_M0_SSVM
0xfba93d2e1f10b9e61d390fd5859a056a 24-30 PEG sbb_T2b_M0_SSVM
0xfed064f01a1708aac1ea3caca9e7aebc 24-30 NONE sbb_T2b_M0_SSVM
0xd2b30a43f8fb2fdf2541ce2b52411751 24-30 DEATH sbb_T2b_M0_SSVM
0xd82e2ab264accdedf1746f2fff6aa04e 24-30 DEATH sbb_T2b_M0_SSVM
0xd3e2b55ee0fd70cac3252cd2c6bce690 24-30 DEATH sbb_T2b_M0_SSVM
0xf56f03896712bce7df54fcc6c4d4e317 24-30 NONE sbb_T2b_M0_SSVM
0xeb5be1e7fd6b7b2b20b9fef2b9701c76 24-30 DEATH sbb_T2b_M0_SSVM
0xebae5bb4a98b834864213f16f917dc69 24-30 PEG sbb_T2b_M0_SSVM
0xfeee1b962c83164cd24885a790f8f1cf 24-30 NONE sbb_T2b_M0_SSVM
0xe9beee41d19d1df18d9dd63e46cb3639 24-30 NONE sbb_T2b_M0_SSVM
0xfbc8eb23a6ec1008a7c9d1ffebdf5f58 24-30 DEATH sbb_T2b_M0_SSVM
0xd112ebf7115150f9fef4fef8d491b40a 24-30 DEATH sbb_T2b_M0_SSVM
0xd12aa4465a4d66275552160183f389d3 24-30 NONE sbb_T2b_M0_SSVM
0xf82812ebdea85ea1aa475f6a802c819b 24-30 NONE sbb_T2b_M0_SSVM
0xcf55f54f88796ec3794c9ff00efb027b 24-30 PEG sbb_T2b_M0_SSVM
0xe2da7898817d9475a66b89d99b0a6e12 24-30 DEATH sbb_T2b_M0_SSVM
0xd3761335574bf2556048bb99f96c4012 24-30 NONE sbb_T2b_M0_SSVM
0xcfc44323cbf71cf449d6fd693663bc9b 24-30 NONE sbb_T2b_M0_SSVM
0xfdb6f07f84bc999d042f37dc3450856e 24-30 DEATH sbb_T2b_M0_SSVM
0xd5edb5ec1169f1a5c865ae83f0af14e8 24-30 NONE sbb_T2b_M0_SSVM
0xe561d548069a6f943e73d3242b6ad1e 24-30 PEG sbb_T2b_M0_SSVM
0xfd825cb486e59a2700e5da7ce967f6a4 24-30 NONE sbb_T2b_M0_SSVM
0xf2a2ce275115e111ae5a22ad3429026c 24-30 DEATH sbb_T2b_M0_SSVM
0xf09ebd675a83f3afcaaf4e64977c3b1a 24-30 PEG sbb_T2b_M0_SSVM
0xfd045973a91ea294e06a6e4cfb4e2266 24-30 DEATH sbb_T2b_M0_SSVM
0xf216cafbe04caffbd7664cc23a2db83d 24-30 PEG sbb_T2b_M0_SSVM
0xe936c1effb682d71174c5873419f7029 24-30 NONE sbb_T2b_M0_SSVM
0xfd7f1867f3e74ffe8d920958df8e11e8 24-30 NONE sbb_T2b_M0_SSVM
0xcf1c0a3f75991383513ef134ef40d961 24-30 NONE sbb_T2b_M0_SSVM
0xfffd8c023601dac0ce9b21ab226b8a3d 24-30 DEATH sbb_T2b_M0_SSVM
0xdf43cfb79350350b0b0b4f4e9e8cc141 24-30 PEG sbb_T2b_M0_SSVM
0xef586cf6bff28e51a5fa24ecfd7ddf76 24-30 NONE sbb_T2b_M0_SSVM
0xe7bbea70b46ca3563c52cf93d7f77e6e 24-30 DEATH sbb_T2b_M0_SSVM
0xf97f3c95956730a68e1fe95cd9e451a2 24-30 NONE sbb_T2b_M0_SSVM
0xe6c9f4971f7d0be5178bcee41ec7ce40 24-30 NONE sbb_T2b_M0_SSVM
0xd31520068ec294753fb4be6f9fb8ae35 24-30 PEG sbb_T2b_M0_SSVM
0xd699c91c0883d77bc456636836f4757c 24-30 PEG sbb_T2b_M0_SSVM
0xec78b838a78beb8f98adeacf43c3d646 24-30 PEG sbb_T2b_M0_SSVM
0xe9e31c6c3df4f0fb15ebe7c24b555e85 24-30 PEG sbb_T2b_M0_SSVM
0xfbfc24fa1e8e50a389841a14774debee 24-30 PEG sbb_T2b_M0_SSVM
0xe68dc2738e74844599b493a91d2aaa1b 24-30 PEG sbb_T2b_M0_SSVM
0xf9bbabe811e269d8cf2be964e07594bc 24-30 DEATH sbb_T2b_M0_SSVM
0xf0f77e6f043c61c37cf0e7c3d0e3c754 24-30 NONE sbb_T2b_M0_SSVM
0xedaa4967a674ca7d995883be598a1a5c 24-30 PEG sbb_T2b_M0_SSVM
0xf2487b792a8cb59a0f5c7db06196110c 24-30 NONE sbb_T2b_M0_SSVM
0xd5f53f8c1c47ccaa895aaf51ced0e80a 24-30 PEG sbb_T2b_M0_SSVM
0xdd5e2c8f8a84304f9f8357bff5b5d42e 24-30 DEATH sbb_T2b_M0_SSVM
0xf0cce8b217b6cece44d7c415dcc41fb0 24-30 NONE sbb_T2b_M0_SSVM
0xe75b0b6e1f9037b4c31a1752618e81b5 24-30 DEATH sbb_T2b_M0_SSVM
0xdd0862a04c30e83bb0603190b7f66f4e 24-30 DEATH sbb_T2b_M0_SSVM
0xd5792dfdb345bdca74578a5dd7e9c0fc 24-30 NONE sbb_T2b_M0_SSVM
0xec56393484e50dc13f3e687c3537517d 30-36 DEATH sbb_T2b_M0_SSVM
0xd0f564004cb3a9534a60631b5599c236 30-36 PEG sbb_T2b_M0_SSVM
0xde517225b56631a6ed23488cfb0d4a54 30-36 NONE sbb_T2b_M0_SSVM
0xde0743f85184390d3bc39c19bf2ea2ae 30-36 PEG sbb_T2b_M0_SSVM
0xed10665bf8c36beb50f95ea6199c0017 30-36 PEG sbb_T2b_M0_SSVM
0xeb9c9a12516b2404f03664d4ff99a05 30-36 NONE sbb_T2b_M0_SSVM
0xebe2c7d10de4b1f1a07007d80a59fece 30-36 NONE sbb_T2b_M0_SSVM
0xf8dc68d9a1c5c169583ca3d4dfa5c214 30-36 DEATH sbb_T2b_M0_SSVM
0xf61e73ba8eb74ccfd07eee98cc7a8a55 30-36 NONE sbb_T2b_M0_SSVM
0xe9198c51686e6b6214bdb714eaf10a2e 30-36 NONE sbb_T2b_M0_SSVM
0xdb1d15b66373bf1bcac246947ff2a5c 30-36 PEG sbb_T2b_M0_SSVM
0xe531418980aaa61c0b078360aa71b72e 30-36 PEG sbb_T2b_M0_SSVM
0xd1fe1f605f01206d6536e16ae78773e4 30-36 PEG sbb_T2b_M0_SSVM
0xd27701d9404e65f294879671f8969a3a 30-36 PEG sbb_T2b_M0_SSVM
0xf018ff02e490ebf136e0462351c9995a 30-36 NONE sbb_T2b_M0_SSVM
0xf833a171c98fd18777becac7328377e5 30-36 PEG sbb_T2b_M0_SSVM
0xef8a3804eb6d65718f090a1fd1cb1cfb 30-36 PEG sbb_T2b_M0_SSVM
0xdb66fea36c893712201bde1649b162fe 30-36 PEG sbb_T2b_M0_SSVM
0xe60673d48d2ab455e24ddd8782f542 30-36 NONE sbb_T2b_M0_SSVM
0xdb6d154fab2869d12355606be2b1a0a5 30-36 DEATH sbb_T2b_M0_SSVM
0xe50e1671eae00837186f48081823f6a 30-36 DEATH sbb_T2b_M0_SSVM
0xde3661c7ed3dc0a21a37fc693b75b963 30-36 PEG sbb_T2b_M0_SSVM
0xe754c66fac138eda1909d340c552150f 30-36 DEATH sbb_T2b_M0_SSVM
0xe22e327df9138504c3ee7484a3f1dd9d 30-36 DEATH sbb_T2b_M0_SSVM
0xd4b363ca424fcb5495c55e256d228dcf 30-36 NONE sbb_T2b_M0_SSVM
0xd812ab30e47bb673fca4238f569e43fc 30-36 PEG sbb_T2b_M0_SSVM
0xf950685edb82c4ec4f7a08666017a011 30-36 NONE sbb_T2b_M0_SSVM
0xf4b4830578cde5e21fefe4f6af242ac7 30-36 NONE sbb_T2b_M0_SSVM
0xf6e75b250207b024bc7a27acf84e2ea1 30-36 NONE sbb_T2b_M0_SSVM
0xdea18430383df9271f5f954a1d7aa89f 30-36 NONE sbb_T2b_M0_SSVM
0xd027b421b5e34a676855471f7f017fe 30-36 PEG sbb_T2b_M0_SSVM
0xfe68d3eaaab39e7ec05260e9f6f3b594 30-36 PEG sbb_T2b_M0_SSVM
0xf8f2dec4be3bc8d3dc2a48831dd912be 30-36 PEG sbb_T2b_M0_SSVM
0xe9232b72bd6ea6c9e228c57744a7fc39 30-36 NONE sbb_T2b_M0_SSVM
0xf81866bdc8527ad3c31b8c3f120799a1 30-36 NONE sbb_T2b_M0_SSVM
0xe9eea3a099d373920d539f5c82a4a735 30-36 DEATH sbb_T2b_M0_SSVM
0xe3741364e8202994126d8ec536af456 30-36 PEG sbb_T2b_M0_SSVM
0xed67617d0fa4e6715aeb4bb060397e9a 30-36 NONE sbb_T2b_M0_SSVM
0xdc20584b36f70c4819c9b9e7ac9b2e25 30-36 NONE sbb_T2b_M0_SSVM
0xd382daa6df0dca40fa815237180121d8 30-36 NONE sbb_T2b_M0_SSVM
0xf842e0468ca5476e1ba6c4045602bff4 30-36 DEATH sbb_T2b_M0_SSVM
0xd54a2ea81d89a51632d04811cebeb8c3 30-36 NONE sbb_T2b_M0_SSVM
0xd1e37b682a43d315c4fd71ba43c0b8f9 30-36 PEG sbb_T2b_M0_SSVM
0xd73f9466b0c710dde7c345775f14b3be 30-36 NONE sbb_T2b_M0_SSVM
0xe8885be345a04b02b8a8086f9859e0ba 30-36 PEG sbb_T2b_M0_SSVM
0xe9552678c63ee3b6c313766e97753dbc 30-36 PEG sbb_T2b_M0_SSVM
0xe087e13516f034108a913abd7a34b28 30-36 PEG sbb_T2b_M0_SSVM
0xdca93142c5222da1fe22972387e81d8d 30-36 DEATH sbb_T2b_M0_SSVM
0xed99d8ce85b98ac336bfe40b81f2e926 30-36 PEG sbb_T2b_M0_SSVM
0xfca94c4f6ab5f79eaf0b7651c88e810b 30-36 NONE sbb_T2b_M0_SSVM
0xd19afb26224fd08b3397eda11712295c 30-36 DEATH sbb_T2b_M0_SSVM
0xfe27d56439d608304d62e96402d693ad 30-36 PEG sbb_T2b_M0_SSVM
0xee673c7ae2e5429e5e7d7bb8021c1f97 30-36 NONE sbb_T2b_M0_SSVM
0xee9c235ba68778d06fb84e7e709fa6e7 30-36 PEG sbb_T2b_M0_SSVM
0xff0634b3f2b17fafdea8696089231df 30-36 DEATH sbb_T2b_M0_SSVM
0xcefea2d935a9883363305f711db5fa4e 30-36 PEG sbb_T2b_M0_SSVM
0xe186efe19dcf7c7050a226f1d5f304ae 30-36 DEATH sbb_T2b_M0_SSVM
0xd49caf56339d1ef045ea7e03950039d4 30-36 PEG sbb_T2b_M0_SSVM
0xf5f92fa359184bb3bc4128daa09ad096 30-36 NONE sbb_T2b_M0_SSVM
0xf1857c0071ce51fa75db9c0ccd92b34a 30-36 NONE sbb_T2b_M0_SSVM
0xec30d4197a860e6d31f7a1336b256568 30-36 NONE sbb_T2b_M0_SSVM
0xd3eeae39e8592e4bc68736b593804ae0 30-36 PEG sbb_T2b_M0_SSVM
0xd581144148304667e66df70e8913f154 >36 PEG sbb_T2b_M0_SSVM
0xde5560cc3800f3797a36528b728b9b6f >36 NONE sbb_T2b_M0_SSVM
0xf9520b99fe784fd0a89627834db4ac60 >36 PEG sbb_T2b_M0_SSVM
0xec0916bb33028ec2d073de8f7d9b72c9 >36 NONE sbb_T2b_M0_SSVM
0xd01e14bab20896317481dfeaf5a802b0 >36 NONE sbb_T2b_M0_SSVM
0xe0b8838933d9689cf370722b5475b6b2 >36 PEG sbb_T2b_M0_SSVM
0xfcaf34ef7b81ea5ab2a3ab42a06f57b8 >36 NONE sbb_T2b_M0_SSVM
0xfed3fdca580330c527c11e25d1bfff5 >36 NONE sbb_T2b_M0_SSVM
0xfcd62abf3423c170425d2a1c3c2eeb9 >36 NONE sbb_T2b_M0_SSVM
0xf5895fdb58c6d5fe6a2717d546c14764 >36 NONE sbb_T2b_M0_SSVM
0xe6aaabecc286c2da050879aacc52273 >36 DEATH sbb_T2b_M0_SSVM
0xf467dbbc2c3f8b542b86b790c5b911a2 >36 DEATH sbb_T2b_M0_SSVM
0xe725515e589333a0e47d8fecb13d0e19 >36 DEATH sbb_T2b_M0_SSVM
0xfecb6f4ce1d71a01be44131645701abb >36 DEATH sbb_T2b_M0_SSVM
0xd36718c707a259c6cad88c5b0f12bef9 >36 PEG sbb_T2b_M0_SSVM
0xed0929b7fd7230de56f15b1497383e77 >36 PEG sbb_T2b_M0_SSVM
0xf22dbd73e845b2d27907e07de22d7c29 >36 PEG sbb_T2b_M0_SSVM
0xe01aad010bf5a1a693431e2394b35293 >36 PEG sbb_T2b_M0_SSVM
0xe5c549844deda60cee96d67026b28ca7 >36 PEG sbb_T2b_M0_SSVM
0xf9a0baa40a5828cc4eb1e2c2e2381da2 >36 PEG sbb_T2b_M0_SSVM
0xfdd6cfa13f857bca9b30dd309aa93b2d >36 NONE sbb_T2b_M0_SSVM
0xfc4fc92c9512e0a9fd0658b0ae42c093 >36 NONE sbb_T2b_M0_SSVM
0xd6619d152577d2686281f82eeb8dd69d >36 PEG sbb_T2b_M0_SSVM
0xe427d2e116a2eb36221ba20ae7d44e4b >36 NONE sbb_T2b_M0_SSVM
0xfb9b007e9edd75c26a83395469cff112 >36 PEG sbb_T2b_M0_SSVM
0xdea07ddceb79e747808204611ef914e6 >36 NONE sbb_T2b_M0_SSVM
0xd066b9335c8265ae4ca035e11e6c53d5 >36 DEATH sbb_T2b_M0_SSVM
0xe9b435a20f9284d389e1f4a19208016d >36 PEG sbb_T2b_M0_SSVM
0xdfd617655582234cf254aa4a1f8a54c2 >36 NONE sbb_T2b_M0_SSVM
0xed9f6346883b01b782874a9e1eba5cf3 >36 PEG sbb_T2b_M0_SSVM
0xcee0d011ee4d68ba5f89822601827575 >36 PEG sbb_T2b_M0_SSVM
0xd5bd3c39db0ea9ec7fe864c579a8564a >36 NONE sbb_T2b_M0_SSVM
0xe47aab7184db16d2565593d71df14757 >36 NONE sbb_T2b_M0_SSVM
0xe261d744e25db88b07b0a0702f5843a1 >36 PEG sbb_T2b_M0_SSVM
0xdfb76e5655be6ec4c62c2cb98276aaa3 >36 NONE sbb_T2b_M0_SSVM
0xea9b939a5421bff79ef3e8b003145a9a >36 NONE sbb_T2b_M0_SSVM
0xe47392b2331f8663812fe4c0b3a1c2b5 >36 NONE sbb_T2b_M0_SSVM
0xd935049213ea4ab7213df4ba9d0011bc >36 NONE sbb_T2b_M0_SSVM
0xea8853b3ecfda6e662b26ae8814b3894 >36 PEG sbb_T2b_M0_SSVM
0xf50bc52bad1fb3ab9d255d2b22ef09a1 >36 PEG sbb_T2b_M0_SSVM
0xfa81a092708523789aa2411a4cc59db8 >36 PEG sbb_T2b_M0_SSVM
0xe8be87187b3a234913efaecbfd380340 >36 DEATH sbb_T2b_M0_SSVM
0xe6899e5673718dd10ace49ea67eb434b >36 PEG sbb_T2b_M0_SSVM
0xd6e36dc40dc7f14d135558b882a20e01 >36 DEATH sbb_T2b_M0_SSVM
0xe059f63a710ae8a31beab3c6eb897775 >36 NONE sbb_T2b_M0_SSVM
0xde976fcdacf209af454093bc0d008a50 >36 PEG sbb_T2b_M0_SSVM
0xf3f59173eebadd3eae124f69cbb33cfa >36 DEATH sbb_T2b_M0_SSVM
0xd09c40ceeeb040913893df79e296559 >36 NONE sbb_T2b_M0_SSVM
